{
    "plugins": ["insert-logo"],
    "pluginsConfig": {
        "insert-logo": {
            "url": "https://gitlab.com/cg24/mnb-repository/-/raw/master/logo.png",
            "style": "background: none;width:100%;"
        }
    }
}