bssCode	codeAqi	stationType
07092X0077/F		Forage
07821X0001/SOURCE	CAMP	Source
08553X0008/S	COST	Source
08326X0004/HY	TITH	Source
08073X0017/HY	COST	Source
07847X0001/HY	BACX	Source
07583X0003/HY	COST	Source
08327X0007/HY	TITH	Source-karstique
07588X0009/ABIME	TURO	Source
07823X0004/HY	COST	Source
07593X0004/HY	BACX	Source
07577X0017/HY	CAMP	Source
07097X0066/S		Sondage
07093X0020/HY		Source
07126X0062/P1		Piézomètre
07111X0033/P1		Piézomètre
07574X0014/F	COST	Forage Profond
07574X0014/F	 TURO	Forage Profond
08062X0012/F	CAMP	Forage Peu Profond
07595X0009/F	COST	Forage Profond
08302X0011/F	CAMP	Forage Profond
08077X0030/ERH	ALLVE	Puits
07104X0502/F	SOCLE	Forage Profond
07355X0006/F	CENO	Forage Profond
07355X0006/F	 BACX	Forage Profond
07345X0018/F	KIMM	Forage Profond
08302X0028/PUITS	CAMP	Forage Peu Profond
07813X0006/F	EOCI	Forage Profond
08305X0002/F	CAMP	Forage Profond
08065X0010/P1	ALLDO	Puits
07823X0007/F	COST	Forage Profond
07823X0007/F	 TURO	Forage Profond
08067X0017/F	CAMP	Forage Peu Profond
07365X0203/F	SOCLE	Forage Peu Profond
07356X0022/PZ	BACX	Piézomètre
07343X0007/F	BACX	Forage Profond
07346X0083/F1	COST	Forage
08081X0026/SE.20	COST	Forage Peu Profond
08081X0026/SE.20	 TURO	Forage Peu Profond
07588X0075/PZ	ALLIS	Piézomètre
07597X0006/F	BAJO	Forage Peu Profond
08051X0001/F	EOCS	Forage Profond
08051X0035/F1	EOCM	Forage Profond
08051X0035/F1	 EOCI	Forage Profond
07816X0032/F3	CAMP	Forage Profond
07825X0043/S4	COST	Forage Profond
08071X0024/F	COST	Forage Profond
08071X0024/F	 TURO	Forage Profond
08078X0027/P	ALLDO	Puits
07825X0015/F	ALLIS	Puits
08063X0014/F	COST	Forage Profond
08067X0022/P	ALLDO	Puits
08071X0026/F	CAMP	Forage Peu Profond
08057X0001/F1	EOCI	Forage
07107X0039/S3	BAJO	Forage Peu Profond
08056X0026/P2	ALLDO	Puits
07835X0003/F3	COST	Forage Peu Profond
07117X0011/F	SOCLE	Forage Peu Profond
08316X0017/Z9	BACX	Forage Profond
08316X0017/Z9	 BAJO	Forage Profond
08087X0014/ERH	ALLDO	Puits
08541X0001/F1	EOCI	Forage
08541X0001/F1	 COST	Forage
08087X0022/PZ	TURO	Forage Profond
08317X0024/PUITS2	CENO	Forage Peu Profond
08305X0050/PZ	EOCM	Forage Profond
08314X0015/F	CENO	Forage Peu Profond
08534X0009/PZ	COST	Piézomètre
BSS002QADR/X	ALLDR	Puits
07091X0042/P		Puits
08085X0046/F	BACX	Forage Profond
07595X0006/F3	COST	Forage Peu Profond
07333X0027/F	TURO	Forage
07333X0027/F	 COST	Forage
08061X0036/PZ	EOCS	Piézomètre
08304X0001/F	CAMP	Forage Profond
07332X0530/F2	COST	Forage
07097X0057/3	TURO	Sondage
07827X0006/F	CAMP	Forage Peu Profond
07114X0062/F2	SOCLE	Forage
07844X0076/P1		Piézomètre
07346X0017/F	TURO	Forage Peu Profond
07844X0003/P	ALLVE	Puits
07584X0002/F	COST	Forage Peu Profond
07584X0002/F	 TURO	Forage Peu Profond
08291X0001/F1	EOCI	Forage
08082X0009/F	COST	Forage Profond
08082X0009/F	 TURO	Forage Profond
07833X0007/F	TURO	Forage Profond
07833X0007/F	 BAJO	Forage Profond
07833X0007/F	 BACX	Forage Profond
08561X0203/F	COST	Forage Peu Profond
08561X0203/F	 TURO	Forage Peu Profond
08311X0023/F1	CENO	Forage Peu Profond
07598X0005/A81	BAJO	Forage Peu Profond
07588X0048/F	BAJO	Forage Profond
07588X0048/F	 BACX	Forage Profond
07836X0009/F	BACX	Forage Profond
07836X0009/F	 KIMM	Forage Profond
07598X0009/F2	LIAS	Forage Profond
08288X0015/P7		Puits
07578X0007/P	ALLDR	Puits
07094X0038/F		Piézomètre
07577X0022/F	TURO	Forage Profond
07577X0022/F	 COST	Forage Profond
08066X0045/F1	EOCI	Forage Profond
07808X0008/F2	EOCI	Forage
08075X0014/F	COST	Forage Profond
08055X0036/F	EOCI	Forage Profond
07345X0017/S		Forage Peu Profond
07348X0015/F	BAJO	Forage Profond
07348X0015/F	 BACX	Forage Profond
07811X0011/F	EOCI	Forage Profond
08288X0009/F2	EOCI	Forage
08296X0022/P5	ALLDR	Puits
08297X0001/F	EOCI	Forage
08304X0018/F	CAMP	Forage Peu Profond
08327X0205/F	TITH	Forage Peu Profond
08323X0205/F	TURO	Forage
08323X0206/F		Forage
07345X0023/F	TURO	Forage Peu Profond
07345X0023/F	 COST	Forage Peu Profond
07804X0538/F3		Forage
08066X0046/F2	EOCI	Forage Profond
08066X0046/F2	 EOCM	Forage Profond
08066X0046/F2	 CAMP	Forage Profond
08075X0013/F	CAMP	Forage Peu Profond
08065X0024/P	ALLDO	Puits
07583X0018/F	TURO	Forage Peu Profond
07583X0019/F	CENO	Forage Peu Profond
07815X0056/F	EOCM	Forage Profond
08057X0014/P	ALLDO	Puits
07818X0038/F2	CAMP	Forage Profond
07095X0117/CAR		Piézomètre
08318X0010/F	COST	Forage Peu Profond
07101X0041/S		Sondage
07097X0067/F		Forage
07106X0517/PZ1		Piézomètre
08294X0011/F	EOCI	Forage Profond
08294X0011/F	 EOCM	Forage Profond
07338X0017/F	COST	Forage Peu Profond
07338X0017/F	 TURO	Forage Peu Profond
07338X0016/F2	COST	Forage Profond
07338X0016/F2	 TURO	Forage Profond
07834X0012/F	BAJO	Forage Peu Profond
08083X0028/F2	BACX	Forage Profond
07808X1069/P	PLIOQUAT	Puits
07106X0518/F		Piézomètre
08296X0023/P6	ALLDR	Puits
07336X0002/F		Forage
08308X0006/F	EOCS	Forage Profond
07808X0007/F2	EOCS	Forage
08305X0001/F	EOCS	Forage
07345X0020/F1	COST	Forage
07345X0020/F1	 TURO	Forage
07588X0045/F4	TURO	Forage
08303X0001/F	CAMP	Forage
07346X0024/F	COST	Forage
07346X0024/F	 TURO	Forage
07098X0037/F		Forage
07818X0033/F4	TURO	Forage
07818X0033/F4	 COST	Forage
08054X0011/F	CAMP	Forage
08308X0017/F		Forage Profond
07828X0020/F	COST	Forage
07828X0020/F	 TURO	Forage
08087X0021/F	BACX	Forage
08087X0021/F	 KIMM	Forage
08082X0010/F	COST	Forage
08082X0010/F	 TURO	Forage
07835X0008/VERGT	KIMM	Forage
08077X0002/F2	COST	Forage
07833X0008/F	Jurassique	Forage
08076X0001/F	CAMP	Forage
08075X0001/F	CAMP	Forage
07588X0005/F	COST	Forage
08294X0001/F	EOCI	Forage
07114X0067/F2		Forage
