nomCommune,CodeINSEECommune,CodePostal,URIGeonames,CodeGeonames,Arrondissement,Canton,CodeINSEECanton,Intercommunality,Superficie,Population,Density,Modifier
Bergerac,24037,24100,https://sws.geonames.org/6455004/,6455004,Bergerac,Bergerac-1,2401,CA Bergeracoise,"56,10",26 833 (2017),478,
Cours-de-Pile,24140,24520,https://sws.geonames.org/6429354/,6429354,Bergerac,Bergerac-2,2402,CA Bergeracoise,"10,81",1 578 (2017),146,
Creysse,24145,24100,https://sws.geonames.org/6429358/,6429358,Bergerac,Bergerac-2,2402,CA Bergeracoise,"11,02",1 740 (2017),158,
Lamonzie-Montastruc,24224,24520,https://sws.geonames.org/6429410/,6429410,Bergerac,Bergerac-2,2402,CA Bergeracoise,"20,66",709 (2017),34,
Lembras,24237,24100,https://sws.geonames.org/6429415/,6429415,Bergerac,Bergerac-2,2402,CA Bergeracoise,"10,59",1 142 (2017),108,
Mouleydier,24296,24520,https://sws.geonames.org/6429460/,6429460,Bergerac,Bergerac-2,2402,CA Bergeracoise,"8,49",1 132 (2017),133,
Queyssac,24345,24140,https://sws.geonames.org/6429495/,6429495,Bergerac,Bergerac-2,2402,CA Bergeracoise,"12,35",466 (2017),38,
Saint-Nexans,24472,24520,https://sws.geonames.org/6429596/,6429596,Bergerac,Bergerac-2,2402,CA Bergeracoise,"12,38",967 (2017),78,
Bergerac,24037,24100,https://sws.geonames.org/6455004/,6455004,Bergerac,Bergerac-2,2402,CA Bergeracoise,"56,10",26 833 (2017),478,
Saint-Sauveur,24499,24520,https://sws.geonames.org/6616193/,6616193,Bergerac,Bergerac-2,2402,CA Bergeracoise,"9,31",847 (2017),91,
Saint-Germain-et-Mons,24419,24520,https://sws.geonames.org/6618251/,6618251,Bergerac,Bergerac-2,2402,CA Bergeracoise,"14,13",829 (2017),59,
Chapdeuil,24105,24320,https://sws.geonames.org/6429333/,6429333,Périgueux,Brantôme en Périgord,2403,CC du Périgord Ribéracois,"7,71",130 (2017),17,
Condat-sur-Trincou,24129,24530,https://sws.geonames.org/6429345/,6429345,Nontron,Brantôme en Périgord,2403,CC Dronne et Belle,"16,54",480 (2017),29,
Creyssac,24144,24350,https://sws.geonames.org/6429357/,6429357,Périgueux,Brantôme en Périgord,2403,CC du Périgord Ribéracois,"4,56",99 (2017),22,
Douchapt,24154,24350,https://sws.geonames.org/6429364/,6429364,Périgueux,Brantôme en Périgord,2403,CC du Périgord Ribéracois,"8,68",359 (2017),41,
Lisle,24243,24350,https://sws.geonames.org/6429418/,6429418,Périgueux,Brantôme en Périgord,2403,CC du Périgord Ribéracois,"17,97",859 (2017),48,
Montagrier,24286,24350,https://sws.geonames.org/6429452/,6429452,Périgueux,Brantôme en Périgord,2403,CC du Périgord Ribéracois,"14,04",516 (2017),37,
Paussac-et-Saint-Vivien,24319,24310,https://sws.geonames.org/6429476/,6429476,Périgueux,Brantôme en Périgord,2403,CC du Périgord Ribéracois,"22,17",468 (2017),21,
Sainte-Croix-de-Mareuil,24394,24340,https://sws.geonames.org/6429531/,6429531,Nontron,Brantôme en Périgord,2403,CC Dronne et Belle,"11,93",150 (2017),13,
Saint-Félix-de-Bourdeilles,24403,24340,https://sws.geonames.org/6429538/,6429538,Nontron,Brantôme en Périgord,2403,CC Dronne et Belle,"6,06",62 (2017),10,
Saint-Pancrace,24474,24530,https://sws.geonames.org/6429598/,6429598,Nontron,Brantôme en Périgord,2403,CC Dronne et Belle,"6,69",187 (2017),28,
Tocane-Saint-Apre,24553,24350,https://sws.geonames.org/6429661/,6429661,Périgueux,Brantôme en Périgord,2403,CC du Périgord Ribéracois,"32,35",1 691 (2017),52,
Villars,24582,24530,https://sws.geonames.org/6429685/,6429685,Nontron,Brantôme en Périgord,2403,CC Dronne et Belle,"27,67",463 (2017),17,
Biras,24042,24310,https://sws.geonames.org/6447769/,6447769,Nontron,Brantôme en Périgord,2403,CC Dronne et Belle,"19,43",664 (2017),34,
Brantôme en Périgord,24064,24310,https://sws.geonames.org/6447784/,6447784,Nontron,Brantôme en Périgord,2403,CC Dronne et Belle,"40,60",3 702 (2017),91,
Saint-Just,24434,24320,https://sws.geonames.org/6453485/,6453485,Périgueux,Brantôme en Périgord,2403,CC du Périgord Ribéracois,"11,20",136 (2017),12,
Rudeau-Ladosse,24221,24340,https://sws.geonames.org/6453824/,6453824,Nontron,Brantôme en Périgord,2403,CC Dronne et Belle,"13,74",160 (2017),12,
Bourdeilles,24055,24310,https://sws.geonames.org/6455006/,6455006,Nontron,Brantôme en Périgord,2403,CC Dronne et Belle,"21,85",743 (2017),34,
La Chapelle-Faucher,24107,24530,https://sws.geonames.org/6455691/,6455691,Nontron,Brantôme en Périgord,2403,CC Dronne et Belle,"18,40",414 (2017),23,
La Chapelle-Montmoreau,24111,24300,https://sws.geonames.org/6455695/,6455695,Nontron,Brantôme en Périgord,2403,CC Dronne et Belle,"8,09",68 (2017),"8,4",
La Rochebeaucourt-et-Argentine,24353,24340,https://sws.geonames.org/6455706/,6455706,Nontron,Brantôme en Périgord,2403,CC Dronne et Belle,"17,31",322 (2017),19,
Champagnac-de-Belair,24096,24530,https://sws.geonames.org/6613835/,6613835,Nontron,Brantôme en Périgord,2403,CC Dronne et Belle,"18,46",752 (2017),41,
Quinsac,24346,24530,https://sws.geonames.org/6613836/,6613836,Nontron,Brantôme en Périgord,2403,CC Dronne et Belle,"17,37",362 (2017),21,
Bussac,24069,24350,https://sws.geonames.org/6614133/,6614133,Nontron,Brantôme en Périgord,2403,CC Dronne et Belle,"16,84",397 (2017),24,
Segonzac,24529,24600,https://sws.geonames.org/6614711/,6614711,Périgueux,Brantôme en Périgord,2403,CC du Périgord Ribéracois,"3,88",205 (2017),53,
Grand-Brassac,24200,24350,https://sws.geonames.org/6615002/,6615002,Périgueux,Brantôme en Périgord,2403,CC du Périgord Ribéracois,"31,74",535 (2017),17,
Saint-Victor,24508,24350,https://sws.geonames.org/6615003/,6615003,Périgueux,Brantôme en Périgord,2403,CC du Périgord Ribéracois,"5,12",203 (2017),40,
Mareuil en Périgord,24253,24340,https://sws.geonames.org/6616167/,6616167,Nontron,Brantôme en Périgord,2403,CC Dronne et Belle,"150,48",2 342 (2017),16,
Chancelade,24102,24650,https://sws.geonames.org/6429331/,6429331,Périgueux,Coulounieix-Chamiers,2404,CA Le Grand Périgueux,"16,23",4 262 (2017),263,
Coulounieix-Chamiers,24138,24660,https://sws.geonames.org/6429352/,6429352,Périgueux,Coulounieix-Chamiers,2404,CA Le Grand Périgueux,"21,70",7 703 (2017),355,
Razac-sur-l'Isle,24350,24430,https://sws.geonames.org/6429499/,6429499,Périgueux,Coulounieix-Chamiers,2404,CA Le Grand Périgueux,"14,24",2 395 (2017),168,
Marsac-sur-l'Isle,24256,24430,https://sws.geonames.org/6616168/,6616168,Périgueux,Coulounieix-Chamiers,2404,CA Le Grand Périgueux,"10,05",3 104 (2017),309,
Cherveix-Cubas,24120,24390,https://sws.geonames.org/6429340/,6429340,Nontron,Isle-Loue-Auvézère,2406,CC Isle-Loue-Auvézère en Périgord,"14,96",569 (2017),38,
Clermont-d'Excideuil,24124,24160,https://sws.geonames.org/6429343/,6429343,Nontron,Isle-Loue-Auvézère,2406,CC Isle-Loue-Auvézère en Périgord,"9,99",232 (2017),23,
Coulaures,24137,24420,https://sws.geonames.org/6429351/,6429351,Nontron,Isle-Loue-Auvézère,2406,CC Isle-Loue-Auvézère en Périgord,"28,87",733 (2017),25,
Cubjac-Auvézère-Val d'Ans,24147,24640,https://sws.geonames.org/6429360/,6429360,Nontron,Isle-Loue-Auvézère,2406,CC Isle-Loue-Auvézère en Périgord,"39,56",1 083 (2017),27,
Dussac,24158,24270,https://sws.geonames.org/6429367/,6429367,Nontron,Isle-Loue-Auvézère,2406,CC Isle-Loue-Auvézère en Périgord,"20,26",404 (2017),20,
Excideuil,24164,24160,https://sws.geonames.org/6429373/,6429373,Nontron,Isle-Loue-Auvézère,2406,CC Isle-Loue-Auvézère en Périgord,"5,02",1 177 (2017),234,
Mayac,24262,24420,https://sws.geonames.org/6429433/,6429433,Nontron,Isle-Loue-Auvézère,2406,CC Isle-Loue-Auvézère en Périgord,"11,28",342 (2017),30,
Preyssac-d'Excideuil,24339,24160,https://sws.geonames.org/6429490/,6429490,Nontron,Isle-Loue-Auvézère,2406,CC Isle-Loue-Auvézère en Périgord,"3,38",161 (2017),48,
Saint-Cyr-les-Champagnes,24397,24270,https://sws.geonames.org/6429534/,6429534,Nontron,Isle-Loue-Auvézère,2406,CC Isle-Loue-Auvézère en Périgord,"15,81",244 (2017),15,
Saint-Germain-des-Prés,24417,24160,https://sws.geonames.org/6429550/,6429550,Nontron,Isle-Loue-Auvézère,2406,CC Isle-Loue-Auvézère en Périgord,"19,01",498 (2017),26,
Saint-Jory-las-Bloux,24429,24160,https://sws.geonames.org/6429560/,6429560,Nontron,Isle-Loue-Auvézère,2406,CC Isle-Loue-Auvézère en Périgord,"16,94",236 (2017),14,
Saint-Martial-d'Albarède,24448,24160,https://sws.geonames.org/6429577/,6429577,Nontron,Isle-Loue-Auvézère,2406,CC Isle-Loue-Auvézère en Périgord,"10,28",464 (2017),45,
Saint-Médard-d'Excideuil,24463,24160,https://sws.geonames.org/6429589/,6429589,Nontron,Isle-Loue-Auvézère,2406,CC Isle-Loue-Auvézère en Périgord,"18,35",546 (2017),30,
Saint-Mesmin,24464,24270,https://sws.geonames.org/6429590/,6429590,Nontron,Isle-Loue-Auvézère,2406,CC Isle-Loue-Auvézère en Périgord,"29,58",318 (2017),11,
Saint-Pantaly-d'Excideuil,24476,24160,https://sws.geonames.org/6429600/,6429600,Nontron,Isle-Loue-Auvézère,2406,CC Isle-Loue-Auvézère en Périgord,"8,46",150 (2017),18,
Saint-Raphaël,24493,24160,https://sws.geonames.org/6429615/,6429615,Nontron,Isle-Loue-Auvézère,2406,CC Isle-Loue-Auvézère en Périgord,"7,13",94 (2017),13,
Saint-Sulpice-d'Excideuil,24505,24800,https://sws.geonames.org/6429625/,6429625,Nontron,Isle-Loue-Auvézère,2406,CC Isle-Loue-Auvézère en Périgord,"19,72",344 (2017),17,
Saint-Vincent-sur-l'Isle,24513,24420,https://sws.geonames.org/6429631/,6429631,Nontron,Isle-Loue-Auvézère,2406,CC Isle-Loue-Auvézère en Périgord,"9,98",306 (2017),31,
Salagnac,24515,24160,https://sws.geonames.org/6429632/,6429632,Nontron,Isle-Loue-Auvézère,2406,CC Isle-Loue-Auvézère en Périgord,"9,08",769 (2017),85,
Sarlande,24519,24270,https://sws.geonames.org/6429635/,6429635,Nontron,Isle-Loue-Auvézère,2406,CC Isle-Loue-Auvézère en Périgord,"34,74",432 (2017),12,
Sarrazac,24522,24800,https://sws.geonames.org/6429638/,6429638,Nontron,Isle-Loue-Auvézère,2406,CC Isle-Loue-Auvézère en Périgord,"29,89",381 (2017),13,
Savignac-Lédrier,24526,24270,https://sws.geonames.org/6429641/,6429641,Nontron,Isle-Loue-Auvézère,2406,CC Isle-Loue-Auvézère en Périgord,"26,90",717 (2017),27,
Savignac-les-Églises,24527,24420,https://sws.geonames.org/6429642/,6429642,Périgueux,Isle-Loue-Auvézère,2406,CA Le Grand Périgueux,"21,90",972 (2017),44,
Brouchaud,24066,24210,https://sws.geonames.org/6447785/,6447785,Nontron,Isle-Loue-Auvézère,2406,CC Isle-Loue-Auvézère en Périgord,"11,94",218 (2017),18,
Angoisse,24008,24270,https://sws.geonames.org/6452200/,6452200,Nontron,Isle-Loue-Auvézère,2406,CC Isle-Loue-Auvézère en Périgord,"23,13",588 (2017),25,
Génis,24196,24160,https://sws.geonames.org/6453823/,6453823,Nontron,Isle-Loue-Auvézère,2406,CC Isle-Loue-Auvézère en Périgord,"25,92",478 (2017),18,
Lanouaille,24227,24270,https://sws.geonames.org/6453826/,6453826,Nontron,Isle-Loue-Auvézère,2406,CC Isle-Loue-Auvézère en Périgord,"23,78",1 017 (2017),43,
Anlhiac,24009,24160,https://sws.geonames.org/6614057/,6614057,Nontron,Isle-Loue-Auvézère,2406,CC Isle-Loue-Auvézère en Périgord,"11,86",275 (2017),23,
Payzac,24320,24270,https://sws.geonames.org/6616174/,6616174,Nontron,Isle-Loue-Auvézère,2406,CC Isle-Loue-Auvézère en Périgord,"47,72",980 (2017),21,
Sanilhac,24312,24660,https://sws.geonames.org/6429470/,6429470,Périgueux,Isle-Manoire,2407,CA Le Grand Périgueux,"59,90",4 548 (2017),76,
Saint-Crépin-d'Auberoche,24390,24330,https://sws.geonames.org/6429528/,6429528,Périgueux,Isle-Manoire,2407,CA Le Grand Périgueux,"9,56",356 (2017),37,
Saint-Geyrac,24421,24330,https://sws.geonames.org/6429554/,6429554,Périgueux,Isle-Manoire,2407,CA Le Grand Périgueux,"17,10",198 (2017),12,
Saint-Pierre-de-Chignac,24484,24330,https://sws.geonames.org/6429607/,6429607,Périgueux,Isle-Manoire,2407,CA Le Grand Périgueux,"15,70",871 (2017),55,
Bassillac et Auberoche,24026,24330,https://sws.geonames.org/6447756/,6447756,Périgueux,Isle-Manoire,2407,CA Le Grand Périgueux,"103,26",4 498 (2017),44,
La Douze,24156,24330,https://sws.geonames.org/6455699/,6455699,Périgueux,Isle-Manoire,2407,CA Le Grand Périgueux,"23,05",1 150 (2017),50,
Boulazac Isle Manoire,24053,"24330
24750
24750",https://sws.geonames.org/6616146/,6616146,Périgueux,Isle-Manoire,2407,CA Le Grand Périgueux,"56,00",10 635 (2017),190,
Couze-et-Saint-Front,24143,24150,https://sws.geonames.org/6429356/,6429356,Bergerac,Lalinde,2408,CC des Bastides Dordogne-Périgord,"8,19",716 (2017),87,
Gaugeac,24195,24540,https://sws.geonames.org/6429394/,6429394,Bergerac,Lalinde,2408,CC des Bastides Dordogne-Périgord,"10,17",112 (2017),11,
Lolme,24244,24540,https://sws.geonames.org/6429419/,6429419,Bergerac,Lalinde,2408,CC des Bastides Dordogne-Périgord,"6,92",197 (2017),28,
Marsalès,24257,24540,https://sws.geonames.org/6429429/,6429429,Bergerac,Lalinde,2408,CC des Bastides Dordogne-Périgord,"9,43",234 (2017),25,
Mauzac-et-Grand-Castang,24260,24150,https://sws.geonames.org/6429431/,6429431,Bergerac,Lalinde,2408,CC des Bastides Dordogne-Périgord,"15,85",864 (2017),55,
Molières,24273,24480,https://sws.geonames.org/6429442/,6429442,Bergerac,Lalinde,2408,CC des Bastides Dordogne-Périgord,"21,22",330 (2017),16,
Monsac,24281,24440,https://sws.geonames.org/6429447/,6429447,Bergerac,Lalinde,2408,CC des Bastides Dordogne-Périgord,"10,74",192 (2017),18,
Montferrand-du-Périgord,24290,24440,https://sws.geonames.org/6429455/,6429455,Bergerac,Lalinde,2408,CC des Bastides Dordogne-Périgord,"13,10",157 (2017),12,
Naussannes,24307,24440,https://sws.geonames.org/6429467/,6429467,Bergerac,Lalinde,2408,CC des Bastides Dordogne-Périgord,"14,82",253 (2017),17,
Pontours,24334,24150,https://sws.geonames.org/6429486/,6429486,Bergerac,Lalinde,2408,CC des Bastides Dordogne-Périgord,"6,69",191 (2017),29,
Rampieux,24347,24440,https://sws.geonames.org/6429496/,6429496,Bergerac,Lalinde,2408,CC des Bastides Dordogne-Périgord,"11,82",150 (2017),13,
Saint-Avit-Rivière,24378,24540,https://sws.geonames.org/6429518/,6429518,Bergerac,Lalinde,2408,CC des Bastides Dordogne-Périgord,"14,00",78 (2017),"5,6",
Saint-Avit-Sénieur,24379,24440,https://sws.geonames.org/6429519/,6429519,Bergerac,Lalinde,2408,CC des Bastides Dordogne-Périgord,"23,40",439 (2017),19,
Saint-Capraise-de-Lalinde,24382,24150,https://sws.geonames.org/6429522/,6429522,Bergerac,Lalinde,2408,CC des Bastides Dordogne-Périgord,"3,83",531 (2017),139,
Saint-Cassien,24384,24540,https://sws.geonames.org/6429524/,6429524,Bergerac,Lalinde,2408,CC des Bastides Dordogne-Périgord,"4,72",34 (2017),"7,2",
Saint-Félix-de-Villadeix,24405,24510,https://sws.geonames.org/6429540/,6429540,Bergerac,Lalinde,2408,CC des Bastides Dordogne-Périgord,"16,88",327 (2017),19,
Sainte-Foy-de-Longas,24407,24510,https://sws.geonames.org/6429542/,6429542,Bergerac,Lalinde,2408,CC des Bastides Dordogne-Périgord,"16,18",237 (2017),15,
Saint-Marcel-du-Périgord,24445,24510,https://sws.geonames.org/6429574/,6429574,Bergerac,Lalinde,2408,CC des Bastides Dordogne-Périgord,"11,46",147 (2017),13,
Saint-Marcory,24446,24540,https://sws.geonames.org/6429575/,6429575,Bergerac,Lalinde,2408,CC des Bastides Dordogne-Périgord,"4,76",50 (2017),11,
Saint-Romain-de-Monpazier,24495,24540,https://sws.geonames.org/6429617/,6429617,Bergerac,Lalinde,2408,CC des Bastides Dordogne-Périgord,"7,48",110 (2017),15,
Soulaures,24542,24540,https://sws.geonames.org/6429653/,6429653,Bergerac,Lalinde,2408,CC des Bastides Dordogne-Périgord,"10,28",92 (2017),"8,9",
Urval,24560,24480,https://sws.geonames.org/6429666/,6429666,Bergerac,Lalinde,2408,CC des Bastides Dordogne-Périgord,"13,38",114 (2017),"8,5",
Varennes,24566,24150,https://sws.geonames.org/6429672/,6429672,Bergerac,Lalinde,2408,CC des Bastides Dordogne-Périgord,"4,05",467 (2017),115,
Badefols-sur-Dordogne,24022,24150,https://sws.geonames.org/6447752/,6447752,Bergerac,Lalinde,2408,CC des Bastides Dordogne-Périgord,"6,06",212 (2017),35,
Baneuil,24023,24150,https://sws.geonames.org/6447753/,6447753,Bergerac,Lalinde,2408,CC des Bastides Dordogne-Périgord,"8,89",347 (2017),39,
Bayac,24027,24150,https://sws.geonames.org/6447757/,6447757,Bergerac,Lalinde,2408,CC des Bastides Dordogne-Périgord,"10,23",351 (2017),34,
Beaumontois en Périgord,24028,24440,https://sws.geonames.org/6447758/,6447758,Bergerac,Lalinde,2408,CC des Bastides Dordogne-Périgord,"72,70",1 846 (2017),25,
Bourniquel,24060,24150,https://sws.geonames.org/6447780/,6447780,Bergerac,Lalinde,2408,CC des Bastides Dordogne-Périgord,"8,96",69 (2017),"7,7",
Calès,24073,24150,https://sws.geonames.org/6447788/,6447788,Bergerac,Lalinde,2408,CC des Bastides Dordogne-Périgord,"8,02",386 (2017),48,
Capdrot,24080,24540,https://sws.geonames.org/6447792/,6447792,Bergerac,Lalinde,2408,CC des Bastides Dordogne-Périgord,"43,72",502 (2017),11,
Cause-de-Clérans,24088,24150,https://sws.geonames.org/6447796/,6447796,Bergerac,Lalinde,2408,CC des Bastides Dordogne-Périgord,"14,35",345 (2017),24,
Lalinde,24223,24150,https://sws.geonames.org/6453825/,6453825,Bergerac,Lalinde,2408,CC des Bastides Dordogne-Périgord,"27,70",2 794 (2017),101,
Lanquais,24228,24150,https://sws.geonames.org/6453827/,6453827,Bergerac,Lalinde,2408,CC des Bastides Dordogne-Périgord,"14,48",496 (2017),34,
Monpazier,24280,24540,https://sws.geonames.org/6453828/,6453828,Bergerac,Lalinde,2408,CC des Bastides Dordogne-Périgord,"0,53",473 (2017),892,
Verdon,24570,24520,https://sws.geonames.org/6453837/,6453837,Bergerac,Lalinde,2408,CC des Bastides Dordogne-Périgord,"4,95",47 (2017),"9,5",
Vergt-de-Biron,24572,24540,https://sws.geonames.org/6612376/,6612376,Bergerac,Lalinde,2408,CC des Bastides Dordogne-Périgord,"16,17",194 (2017),12,
Pezuls,24327,24510,https://sws.geonames.org/6613990/,6613990,Bergerac,Lalinde,2408,CC des Bastides Dordogne-Périgord,"10,38",122 (2017),12,
Alles-sur-Dordogne,24005,24480,https://sws.geonames.org/6614044/,6614044,Bergerac,Lalinde,2408,CC des Bastides Dordogne-Périgord,"9,41",385 (2017),41,
Bouillac,24052,24480,https://sws.geonames.org/6614669/,6614669,Bergerac,Lalinde,2408,CC des Bastides Dordogne-Périgord,"12,34",122 (2017),"9,9",
Biron,24043,24540,https://sws.geonames.org/6616145/,6616145,Bergerac,Lalinde,2408,CC des Bastides Dordogne-Périgord,"12,98",162 (2017),12,
Le Buisson-de-Cadouin,24068,24480,https://sws.geonames.org/6616147/,6616147,Bergerac,Lalinde,2408,CC des Bastides Dordogne-Périgord,"50,37",1 954 (2017),39,
Lavalade,24231,24540,https://sws.geonames.org/6616162/,6616162,Bergerac,Lalinde,2408,CC des Bastides Dordogne-Périgord,"3,95",81 (2017),21,
Liorac-sur-Louyre,24242,24520,https://sws.geonames.org/6616166/,6616166,Bergerac,Lalinde,2408,CC des Bastides Dordogne-Périgord,"20,27",245 (2017),12,
Pressignac-Vicq,24338,24150,https://sws.geonames.org/6616176/,6616176,Bergerac,Lalinde,2408,CC des Bastides Dordogne-Périgord,"17,06",432 (2017),25,
Saint-Agne,24361,24520,https://sws.geonames.org/6616178/,6616178,Bergerac,Lalinde,2408,CC des Bastides Dordogne-Périgord,"5,87",441 (2017),75,
Sainte-Croix,24393,24440,https://sws.geonames.org/6616181/,6616181,Bergerac,Lalinde,2408,CC des Bastides Dordogne-Périgord,"12,87",87 (2017),"6,8",
Châtres,24116,24120,https://sws.geonames.org/6429336/,6429336,Sarlat-la-Canéda,Le Haut-Périgord Noir,2405,CC du Terrassonnais en Périgord Noir Thenon Hautefort,"12,20",194 (2017),16,
Coubjours,24136,24390,https://sws.geonames.org/6429350/,6429350,Sarlat-la-Canéda,Le Haut-Périgord Noir,2405,CC du Terrassonnais en Périgord Noir Thenon Hautefort,"9,55",128 (2017),13,
Fossemagne,24188,24210,https://sws.geonames.org/6429387/,6429387,Sarlat-la-Canéda,Le Haut-Périgord Noir,2405,CC du Terrassonnais en Périgord Noir Thenon Hautefort,"21,88",537 (2017),25,
Gabillou,24192,24210,https://sws.geonames.org/6429391/,6429391,Sarlat-la-Canéda,Le Haut-Périgord Noir,2405,CC du Terrassonnais en Périgord Noir Thenon Hautefort,"7,91",94 (2017),12,
Granges-d'Ans,24202,24390,https://sws.geonames.org/6429396/,6429396,Sarlat-la-Canéda,Le Haut-Périgord Noir,2405,CC du Terrassonnais en Périgord Noir Thenon Hautefort,"11,81",152 (2017),13,
Hautefort,24210,24390,https://sws.geonames.org/6429401/,6429401,Sarlat-la-Canéda,Le Haut-Périgord Noir,2405,CC du Terrassonnais en Périgord Noir Thenon Hautefort,"25,68",928 (2017),36,
Limeyrat,24241,24210,https://sws.geonames.org/6429417/,6429417,Sarlat-la-Canéda,Le Haut-Périgord Noir,2405,CC du Terrassonnais en Périgord Noir Thenon Hautefort,"19,72",445 (2017),23,
Montagnac-d'Auberoche,24284,24210,https://sws.geonames.org/6429450/,6429450,Sarlat-la-Canéda,Le Haut-Périgord Noir,2405,CC du Terrassonnais en Périgord Noir Thenon Hautefort,"10,02",146 (2017),15,
Nailhac,24302,24390,https://sws.geonames.org/6429463/,6429463,Sarlat-la-Canéda,Le Haut-Périgord Noir,2405,CC du Terrassonnais en Périgord Noir Thenon Hautefort,"19,35",333 (2017),17,
Peyrignac,24324,24210,https://sws.geonames.org/6429480/,6429480,Sarlat-la-Canéda,Le Haut-Périgord Noir,2405,CC du Terrassonnais en Périgord Noir Thenon Hautefort,"6,30",580 (2017),92,
Sainte-Eulalie-d'Ans,24401,24640,https://sws.geonames.org/6429536/,6429536,Sarlat-la-Canéda,Le Haut-Périgord Noir,2405,CC du Terrassonnais en Périgord Noir Thenon Hautefort,"11,83",288 (2017),24,
Sainte-Orse,24473,24210,https://sws.geonames.org/6429597/,6429597,Sarlat-la-Canéda,Le Haut-Périgord Noir,2405,CC du Terrassonnais en Périgord Noir Thenon Hautefort,"23,54",358 (2017),15,
Saint-Rabier,24491,24210,https://sws.geonames.org/6429614/,6429614,Sarlat-la-Canéda,Le Haut-Périgord Noir,2405,CC du Terrassonnais en Périgord Noir Thenon Hautefort,"15,87",585 (2017),37,
Sainte-Trie,24507,24160,https://sws.geonames.org/6429626/,6429626,Sarlat-la-Canéda,Le Haut-Périgord Noir,2405,CC du Terrassonnais en Périgord Noir Thenon Hautefort,"10,91",110 (2017),10,
Teillots,24545,24390,https://sws.geonames.org/6429655/,6429655,Sarlat-la-Canéda,Le Haut-Périgord Noir,2405,CC du Terrassonnais en Périgord Noir Thenon Hautefort,"10,02",102 (2017),10,
Thenon,24550,24210,https://sws.geonames.org/6429658/,6429658,Sarlat-la-Canéda,Le Haut-Périgord Noir,2405,CC du Terrassonnais en Périgord Noir Thenon Hautefort,"25,92",1 263 (2017),49,
Tourtoirac,24555,24390,https://sws.geonames.org/6429662/,6429662,Sarlat-la-Canéda,Le Haut-Périgord Noir,2405,CC du Terrassonnais en Périgord Noir Thenon Hautefort,"25,43",644 (2017),25,
Villac,24580,24120,https://sws.geonames.org/6429683/,6429683,Sarlat-la-Canéda,Le Haut-Périgord Noir,2405,CC du Terrassonnais en Périgord Noir Thenon Hautefort,"20,61",266 (2017),13,
Auriac-du-Périgord,24018,24290,https://sws.geonames.org/6447749/,6447749,Sarlat-la-Canéda,Le Haut-Périgord Noir,2405,CC du Terrassonnais en Périgord Noir Thenon Hautefort,"18,63",383 (2017),21,
Azerat,24019,24210,https://sws.geonames.org/6447750/,6447750,Sarlat-la-Canéda,Le Haut-Périgord Noir,2405,CC du Terrassonnais en Périgord Noir Thenon Hautefort,"20,05",442 (2017),22,
Badefols-d'Ans,24021,24390,https://sws.geonames.org/6447751/,6447751,Sarlat-la-Canéda,Le Haut-Périgord Noir,2405,CC du Terrassonnais en Périgord Noir Thenon Hautefort,"18,34",404 (2017),22,
Bars,24025,24210,https://sws.geonames.org/6447755/,6447755,Sarlat-la-Canéda,Le Haut-Périgord Noir,2405,CC du Terrassonnais en Périgord Noir Thenon Hautefort,"22,58",243 (2017),11,
Bassillac et Auberoche,24026,24330,https://sws.geonames.org/6447756/,6447756,Périgueux,Le Haut-Périgord noir,2405,CA Le Grand Périgueux,"103,26",4 498 (2017),44,
Beauregard-de-Terrasson,24030,24120,https://sws.geonames.org/6447760/,6447760,Sarlat-la-Canéda,Le Haut-Périgord Noir,2405,CC du Terrassonnais en Périgord Noir Thenon Hautefort,"7,97",703 (2017),88,
Boisseuilh,24046,24390,https://sws.geonames.org/6447772/,6447772,Sarlat-la-Canéda,Le Haut-Périgord Noir,2405,CC du Terrassonnais en Périgord Noir Thenon Hautefort,"11,90",120 (2017),10,
Ajat,24004,24210,https://sws.geonames.org/6452198/,6452198,Sarlat-la-Canéda,Le Haut-Périgord Noir,2405,CC du Terrassonnais en Périgord Noir Thenon Hautefort,"21,95",317 (2017),14,
La Chapelle-Saint-Jean,24113,24390,https://sws.geonames.org/6455696/,6455696,Sarlat-la-Canéda,Le Haut-Périgord Noir,2405,CC du Terrassonnais en Périgord Noir Thenon Hautefort,"3,70",91 (2017),25,
La Bachellerie,24020,24210,https://sws.geonames.org/6616144/,6616144,Sarlat-la-Canéda,Le Haut-Périgord Noir,2405,CC du Terrassonnais en Périgord Noir Thenon Hautefort,"17,34",899 (2017),52,
Chourgnac,24121,24640,https://sws.geonames.org/6616152/,6616152,Sarlat-la-Canéda,Le Haut-Périgord Noir,2405,CC du Terrassonnais en Périgord Noir Thenon Hautefort,"6,96",60 (2017),"8,6",
Le Lardin-Saint-Lazare,24229,24570,https://sws.geonames.org/6616161/,6616161,Sarlat-la-Canéda,Le Haut-Périgord Noir,2405,CC du Terrassonnais en Périgord Noir Thenon Hautefort,"10,85",1 753 (2017),162,
Temple-Laguyon,24546,24390,https://sws.geonames.org/6616197/,6616197,Sarlat-la-Canéda,Le Haut-Périgord Noir,2405,CC du Terrassonnais en Périgord Noir Thenon Hautefort,"2,94",41 (2017),14,
Échourgnac,24159,24410,https://sws.geonames.org/6429368/,6429368,Périgueux,Montpon-Ménestérol,2409,CC Isle Double Landais,"34,88",392 (2017),11,
Eygurande-et-Gardedeuil,24165,24700,https://sws.geonames.org/6429374/,6429374,Périgueux,Montpon-Ménestérol,2409,CC Isle Double Landais,"35,62",403 (2017),11,
Ménesplet,24264,24700,https://sws.geonames.org/6429435/,6429435,Périgueux,Montpon-Ménestérol,2409,CC Isle Double Landais,"18,91",1 817 (2017),96,
Montpon-Ménestérol,24294,24700,https://sws.geonames.org/6429458/,6429458,Périgueux,Montpon-Ménestérol,2409,CC Isle Double Landais,"46,34",5 498 (2017),119,
Moulin-Neuf,24297,24700,https://sws.geonames.org/6429461/,6429461,Périgueux,Montpon-Ménestérol,2409,CC Isle Double Landais,"8,62",926 (2017),107,
Parcoul-Chenaud,24316,24410,https://sws.geonames.org/6429473/,6429473,Périgueux,Montpon-Ménestérol,2409,CC du Pays de Saint-Aulaye,"26,80",775 (2017),29,
Saint Aulaye-Puymangou,24376,24410,https://sws.geonames.org/6429516/,6429516,Périgueux,Montpon-Ménestérol,2409,CC du Pays de Saint-Aulaye,"46,00",1 434 (2017),31,
Saint-Barthélemy-de-Bellegarde,24380,24700,https://sws.geonames.org/6429520/,6429520,Périgueux,Montpon-Ménestérol,2409,CC Isle Double Landais,"33,12",505 (2017),15,
Saint-Martial-d'Artenset,24449,24700,https://sws.geonames.org/6429578/,6429578,Périgueux,Montpon-Ménestérol,2409,CC Isle Double Landais,"32,14",955 (2017),30,
Saint Privat en Périgord,24490,24410,https://sws.geonames.org/6429613/,6429613,Périgueux,Montpon-Ménestérol,2409,CC du Pays de Saint-Aulaye,"44,40",1 121 (2017),25,
Saint-Sauveur-Lalande,24500,24700,https://sws.geonames.org/6429620/,6429620,Périgueux,Montpon-Ménestérol,2409,CC Isle Double Landais,"9,30",156 (2017),17,
Saint-Vincent-Jalmoutiers,24511,24410,https://sws.geonames.org/6429629/,6429629,Périgueux,Montpon-Ménestérol,2409,CC du Pays de Saint-Aulaye,"16,21",250 (2017),15,
Servanches,24533,24410,https://sws.geonames.org/6429646/,6429646,Périgueux,Montpon-Ménestérol,2409,CC du Pays de Saint-Aulaye,"20,56",86 (2017),"4,2",
Le Pizou,24329,24700,https://sws.geonames.org/6455705/,6455705,Périgueux,Montpon-Ménestérol,2409,CC Isle Double Landais,"17,02",1 317 (2017),77,
La Roche-Chalais,24354,24490,https://sws.geonames.org/6455707/,6455707,Périgueux,Montpon-Ménestérol,2409,CC du Pays de Saint-Aulaye,"89,40",2 999 (2017),34,
Fraisse,24191,24130,https://sws.geonames.org/6429390/,6429390,Bergerac,Pays de la Force,2410,CA Bergeracoise,"21,50",172 (2017),"8,0",
Gardonne,24194,24680,https://sws.geonames.org/6429393/,6429393,Bergerac,Pays de la Force,2410,CA Bergeracoise,"8,26",1 592 (2017),193,
Ginestet,24197,24130,https://sws.geonames.org/6429395/,6429395,Bergerac,Pays de la Force,2410,CA Bergeracoise,"13,06",729 (2017),56,
Lamonzie-Saint-Martin,24225,24680,https://sws.geonames.org/6429411/,6429411,Bergerac,Pays de la Force,2410,CA Bergeracoise,"20,64",2 532 (2017),123,
Lunas,24246,24130,https://sws.geonames.org/6429421/,6429421,Bergerac,Pays de la Force,2410,CA Bergeracoise,"16,87",386 (2017),23,
Prigonrieux,24340,24130,https://sws.geonames.org/6429491/,6429491,Bergerac,Pays de la Force,2410,CA Bergeracoise,"26,12",4 157 (2017),159,
Saint-Géry,24420,24400,https://sws.geonames.org/6429553/,6429553,Bergerac,Pays de la Force,2410,CA Bergeracoise,"18,71",236 (2017),13,
Saint-Laurent-des-Vignes,24437,24100,https://sws.geonames.org/6429567/,6429567,Bergerac,Pays de la Force,2410,CA Bergeracoise,"8,08",886 (2017),110,
Saint-Pierre-d'Eyraud,24487,24130,https://sws.geonames.org/6429610/,6429610,Bergerac,Pays de la Force,2410,CA Bergeracoise,"26,16",1 795 (2017),69,
Bosset,24051,24130,https://sws.geonames.org/6447775/,6447775,Bergerac,Pays de la Force,2410,CA Bergeracoise,"14,52",215 (2017),15,
La Force,24222,24130,https://sws.geonames.org/6455703/,6455703,Bergerac,Pays de la Force,2410,CA Bergeracoise,"15,60",2 674 (2017),171,
Le Fleix,24182,24130,https://sws.geonames.org/6613192/,6613192,Bergerac,Pays de la Force,2410,CA Bergeracoise,"18,05",1 485 (2017),82,
Monfaucon,24277,24130,https://sws.geonames.org/6613780/,6613780,Bergerac,Pays de la Force,2410,CA Bergeracoise,"24,74",294 (2017),12,
Saint-Georges-Blancaneix,24413,24130,https://sws.geonames.org/6616183/,6616183,Bergerac,Pays de la Force,2410,CA Bergeracoise,"13,62",252 (2017),19,
Fougueyrolles,24189,33220,https://sws.geonames.org/6429388/,6429388,Bergerac,Pays de Montaigne et Gurson,2411,CC de Montaigne Montravel et Gurson,"11,45",479 (2017),42,
Minzac,24272,24610,https://sws.geonames.org/6429441/,6429441,Bergerac,Pays de Montaigne et Gurson,2411,CC de Montaigne Montravel et Gurson,"15,91",458 (2017),29,
Montazeau,24288,24230,https://sws.geonames.org/6429453/,6429453,Bergerac,Pays de Montaigne et Gurson,2411,CC de Montaigne Montravel et Gurson,"13,78",296 (2017),21,
Montpeyroux,24292,24610,https://sws.geonames.org/6429456/,6429456,Bergerac,Pays de Montaigne et Gurson,2411,CC de Montaigne Montravel et Gurson,"23,37",442 (2017),19,
Nastringues,24306,24230,https://sws.geonames.org/6429466/,6429466,Bergerac,Pays de Montaigne et Gurson,2411,CC de Montaigne Montravel et Gurson,"6,22",117 (2017),19,
Saint-Géraud-de-Corps,24415,24700,https://sws.geonames.org/6429548/,6429548,Bergerac,Pays de Montaigne et Gurson,2411,CC de Montaigne Montravel et Gurson,"14,95",243 (2017),16,
Saint-Méard-de-Gurçon,24461,24610,https://sws.geonames.org/6429587/,6429587,Bergerac,Pays de Montaigne et Gurson,2411,CC de Montaigne Montravel et Gurson,"28,38",813 (2017),29,
Saint-Michel-de-Montaigne,24466,24230,https://sws.geonames.org/6429592/,6429592,Bergerac,Pays de Montaigne et Gurson,2411,CC Castillon Pujols,"9,10",337 (2017),37,
Saint-Rémy,24494,24700,https://sws.geonames.org/6429616/,6429616,Bergerac,Pays de Montaigne et Gurson,2411,CC de Montaigne Montravel et Gurson,"22,26",516 (2017),23,
Bonneville-et-Saint-Avit-de-Fumadières,24048,24230,https://sws.geonames.org/6447773/,6447773,Bergerac,Pays de Montaigne et Gurson,2411,CC de Montaigne Montravel et Gurson,"7,04",323 (2017),46,
Carsac-de-Gurson,24083,24610,https://sws.geonames.org/6447794/,6447794,Bergerac,Pays de Montaigne et Gurson,2411,CC de Montaigne Montravel et Gurson,"6,91",190 (2017),27,
Lamothe-Montravel,24226,24230,https://sws.geonames.org/6612361/,6612361,Bergerac,Pays de Montaigne et Gurson,2411,CC de Montaigne Montravel et Gurson,"11,63",1 330 (2017),114,
Montcaret,24289,24230,https://sws.geonames.org/6612365/,6612365,Bergerac,Pays de Montaigne et Gurson,2411,CC de Montaigne Montravel et Gurson,"17,07",1 455 (2017),85,
Saint-Antoine-de-Breuilh,24370,24230,https://sws.geonames.org/6612369/,6612369,Bergerac,Pays de Montaigne et Gurson,2411,CC de Montaigne Montravel et Gurson,"17,82",1 877 (2017),105,
Saint-Seurin-de-Prats,24501,24230,https://sws.geonames.org/6612373/,6612373,Bergerac,Pays de Montaigne et Gurson,2411,CC de Montaigne Montravel et Gurson,"5,56",494 (2017),89,
Vélines,24568,24230,https://sws.geonames.org/6612375/,6612375,Bergerac,Pays de Montaigne et Gurson,2411,CC de Montaigne Montravel et Gurson,"10,47",1 102 (2017),105,
Port-Sainte-Foy-et-Ponchapt,24335,33220,https://sws.geonames.org/6616175/,6616175,Bergerac,Pays de Montaigne et Gurson,2411,CC du pays Foyen,"18,32",2 498 (2017),136,
Saint-Martin-de-Gurson,24454,24610,https://sws.geonames.org/6616187/,6616187,Bergerac,Pays de Montaigne et Gurson,2411,CC de Montaigne Montravel et Gurson,"24,58",666 (2017),27,
Saint-Vivien,24514,24230,https://sws.geonames.org/6616194/,6616194,Bergerac,Pays de Montaigne et Gurson,2411,CC de Montaigne Montravel et Gurson,"8,53",250 (2017),29,
Villefranche-de-Lonchat,24584,24610,https://sws.geonames.org/6616198/,6616198,Bergerac,Pays de Montaigne et Gurson,2411,CC de Montaigne Montravel et Gurson,"14,98",973 (2017),65,
Clermont-de-Beauregard,24123,24140,https://sws.geonames.org/6429342/,6429342,Périgueux,Périgord Central,2412,CC Isle et Crempse en Périgord,"6,24",105 (2017),17,
Creyssensac-et-Pissot,24146,24380,https://sws.geonames.org/6429359/,6429359,Périgueux,Périgord Central,2412,CA Le Grand Périgueux,"8,62",262 (2017),30,
Douville,24155,24140,https://sws.geonames.org/6429365/,6429365,Périgueux,Périgord Central,2412,CC Isle et Crempse en Périgord,"19,91",451 (2017),23,
Église-Neuve-de-Vergt,24160,24380,https://sws.geonames.org/6429369/,6429369,Périgueux,Périgord Central,2412,CA Le Grand Périgueux,"7,43",552 (2017),74,
Église-Neuve-d'Issac,24161,24400,https://sws.geonames.org/6429370/,6429370,Périgueux,Périgord Central,2412,CC Isle et Crempse en Périgord,"16,67",140 (2017),"8,4",
Fouleix,24190,24380,https://sws.geonames.org/6429389/,6429389,Périgueux,Périgord Central,2412,CA Le Grand Périgueux,"10,94",248 (2017),23,
Issac,24211,24400,https://sws.geonames.org/6429402/,6429402,Périgueux,Périgord Central,2412,CC Isle et Crempse en Périgord,"23,32",445 (2017),19,
Lacropte,24220,24380,https://sws.geonames.org/6429409/,6429409,Périgueux,Périgord Central,2412,CA Le Grand Périgueux,"26,23",651 (2017),25,
Montagnac-la-Crempse,24285,24140,https://sws.geonames.org/6429451/,6429451,Périgueux,Périgord Central,2412,CC Isle et Crempse en Périgord,"25,49",392 (2017),15,
Sanilhac,24312,24660,https://sws.geonames.org/6429470/,6429470,Périgueux,Périgord central,2412,CA Le Grand Périgueux,"59,90",4 548 (2017),76,
Paunat,24318,24510,https://sws.geonames.org/6429475/,6429475,Périgueux,Périgord Central,2412,CA Le Grand Périgueux,"18,28",308 (2017),17,
Saint-Amand-de-Vergt,24365,24380,https://sws.geonames.org/6429506/,6429506,Périgueux,Périgord Central,2412,CA Le Grand Périgueux,"12,66",243 (2017),19,
Saint-Hilaire-d'Estissac,24422,24140,https://sws.geonames.org/6429555/,6429555,Périgueux,Périgord Central,2412,CC Isle et Crempse en Périgord,"6,14",112 (2017),18,
Saint-Jean-d'Estissac,24426,24140,https://sws.geonames.org/6429558/,6429558,Périgueux,Périgord Central,2412,CC Isle et Crempse en Périgord,"12,86",177 (2017),14,
Saint-Martin-des-Combes,24456,24140,https://sws.geonames.org/6429584/,6429584,Périgueux,Périgord Central,2412,CC Isle et Crempse en Périgord,"13,99",186 (2017),13,
Saint-Michel-de-Villadeix,24468,24380,https://sws.geonames.org/6429593/,6429593,Périgueux,Périgord Central,2412,CA Le Grand Périgueux,"14,17",309 (2017),22,
Saint-Paul-de-Serre,24480,24380,https://sws.geonames.org/6429603/,6429603,Périgueux,Périgord Central,2412,CA Le Grand Périgueux,"10,44",280 (2017),27,
Salon,24518,24380,https://sws.geonames.org/6429634/,6429634,Périgueux,Périgord Central,2412,CA Le Grand Périgueux,"16,97",277 (2017),16,
Trémolat,24558,24510,https://sws.geonames.org/6429664/,6429664,Bergerac,Périgord Central,2412,CC des Bastides Dordogne-Périgord,"14,03",652 (2017),46,
Veyrines-de-Vergt,24576,24380,https://sws.geonames.org/6429680/,6429680,Périgueux,Périgord Central,2412,CA Le Grand Périgueux,"11,91",256 (2017),21,
Villamblard,24581,24140,https://sws.geonames.org/6429684/,6429684,Périgueux,Périgord Central,2412,CC Isle et Crempse en Périgord,"20,43",886 (2017),43,
Beauregard-et-Bassac,24031,24140,https://sws.geonames.org/6447761/,6447761,Périgueux,Périgord Central,2412,CC Isle et Crempse en Périgord,"12,02",262 (2017),22,
Beleymas,24034,24140,https://sws.geonames.org/6447764/,6447764,Périgueux,Périgord Central,2412,CC Isle et Crempse en Périgord,"16,07",274 (2017),17,
Bourrou,24061,24110,https://sws.geonames.org/6447781/,6447781,Périgueux,Périgord Central,2412,CA Le Grand Périgueux,"9,13",128 (2017),14,
Campsegret,24077,24140,https://sws.geonames.org/6447790/,6447790,Périgueux,Périgord Central,2412,CC Isle et Crempse en Périgord,"13,83",389 (2017),28,
Chalagnac,24094,24380,https://sws.geonames.org/6447802/,6447802,Périgueux,Périgord Central,2412,CA Le Grand Périgueux,"14,15",435 (2017),31,
Vergt,24571,24380,https://sws.geonames.org/6453838/,6453838,Périgueux,Périgord Central,2412,CA Le Grand Périgueux,"32,52",1 672 (2017),51,
Limeuil,24240,24510,https://sws.geonames.org/6614184/,6614184,Sarlat-la-Canéda,Périgord Central,2412,CC de la Vallée de l'Homme,"10,57",336 (2017),32,
Grun-Bordas,24208,24380,https://sws.geonames.org/6616159/,6616159,Périgueux,Périgord Central,2412,CA Le Grand Périgueux,"12,28",227 (2017),18,
Val de Louyre et Caudeau,24362,24510,https://sws.geonames.org/6616179/,6616179,Périgueux,Périgord Central,2412,CA Le Grand Périgueux,"82,12",1 588 (2017),19,
Saint-Georges-de-Montclard,24414,24140,https://sws.geonames.org/6616184/,6616184,Périgueux,Périgord Central,2412,CC Isle et Crempse en Périgord,"13,68",291 (2017),21,
Saint-Mayme-de-Péreyrol,24459,24380,https://sws.geonames.org/6616188/,6616188,Périgueux,Périgord Central,2412,CA Le Grand Périgueux,"10,75",283 (2017),26,
Eyraud-Crempse-Maurens,24259,24140,https://sws.geonames.org/6424420/,6424420,Périgueux,Périgord Central,2412,CC Isle et Crempse en Périgord,"50,51",1 595 (2017),32,
Champs-Romain,24101,24470,https://sws.geonames.org/6429330/,6429330,Nontron,Périgord Vert Nontronnais,2413,CC du Périgord Nontronnais (nouvelle),"20,33",286 (2017),14,
Étouars,24163,24360,https://sws.geonames.org/6429372/,6429372,Nontron,Périgord Vert Nontronnais,2413,CC du Périgord Nontronnais (nouvelle),"7,83",155 (2017),20,
Hautefaye,24209,24300,https://sws.geonames.org/6429400/,6429400,Nontron,Périgord Vert Nontronnais,2413,CC du Périgord Nontronnais (nouvelle),"12,47",136 (2017),11,
Javerlhac-et-la-Chapelle-Saint-Robert,24214,24300,https://sws.geonames.org/6429404/,6429404,Nontron,Périgord Vert Nontronnais,2413,CC du Périgord Nontronnais (nouvelle),"29,25",846 (2017),29,
Lussas-et-Nontronneau,24248,24300,https://sws.geonames.org/6429423/,6429423,Nontron,Périgord Vert Nontronnais,2413,CC du Périgord Nontronnais (nouvelle),"22,35",300 (2017),13,
Milhac-de-Nontron,24271,24470,https://sws.geonames.org/6429440/,6429440,Nontron,Périgord Vert Nontronnais,2413,CC du Périgord Nontronnais (nouvelle),"34,75",505 (2017),15,
Piégut-Pluviers,24328,24360,https://sws.geonames.org/6429483/,6429483,Nontron,Périgord Vert Nontronnais,2413,CC du Périgord Nontronnais (nouvelle),"18,11",1 166 (2017),64,
Saint-Front-la-Rivière,24410,24300,https://sws.geonames.org/6429545/,6429545,Nontron,Périgord Vert Nontronnais,2413,CC du Périgord Nontronnais (nouvelle),"17,89",518 (2017),29,
Saint-Front-sur-Nizonne,24411,24300,https://sws.geonames.org/6429546/,6429546,Nontron,Périgord Vert Nontronnais,2413,CC du Périgord Nontronnais (nouvelle),"13,05",157 (2017),12,
Saint-Martial-de-Valette,24451,24300,https://sws.geonames.org/6429580/,6429580,Nontron,Périgord Vert Nontronnais,2413,CC du Périgord Nontronnais (nouvelle),"15,71",789 (2017),50,
Saint-Martin-le-Pin,24458,24300,https://sws.geonames.org/6429586/,6429586,Nontron,Périgord Vert Nontronnais,2413,CC du Périgord Nontronnais (nouvelle),"15,54",271 (2017),17,
Saint-Pardoux-la-Rivière,24479,24470,https://sws.geonames.org/6429602/,6429602,Nontron,Périgord Vert Nontronnais,2413,CC du Périgord Nontronnais (nouvelle),"23,84",1 179 (2017),49,
Saint-Saud-Lacoussière,24498,24470,https://sws.geonames.org/6429619/,6429619,Nontron,Périgord Vert Nontronnais,2413,CC du Périgord Nontronnais (nouvelle),"58,04",832 (2017),14,
Savignac-de-Nontron,24525,24300,https://sws.geonames.org/6429640/,6429640,Nontron,Périgord Vert Nontronnais,2413,CC du Périgord Nontronnais (nouvelle),"9,69",191 (2017),20,
Sceau-Saint-Angel,24528,24300,https://sws.geonames.org/6429643/,6429643,Nontron,Périgord Vert Nontronnais,2413,CC du Périgord Nontronnais (nouvelle),"17,49",124 (2017),"7,1",
Soudat,24541,24360,https://sws.geonames.org/6429652/,6429652,Nontron,Périgord Vert Nontronnais,2413,CC du Périgord Nontronnais (nouvelle),"8,82",92 (2017),10,
Teyjat,24548,24300,https://sws.geonames.org/6429656/,6429656,Nontron,Périgord Vert Nontronnais,2413,CC du Périgord Nontronnais (nouvelle),"16,99",275 (2017),16,
Varaignes,24565,24360,https://sws.geonames.org/6429671/,6429671,Nontron,Périgord Vert Nontronnais,2413,CC du Périgord Nontronnais (nouvelle),"16,60",403 (2017),24,
Augignac,24016,24300,https://sws.geonames.org/6447748/,6447748,Nontron,Périgord Vert Nontronnais,2413,CC du Périgord Nontronnais (nouvelle),"22,64",814 (2017),36,
Busserolles,24070,24360,https://sws.geonames.org/6447786/,6447786,Nontron,Périgord Vert Nontronnais,2413,CC du Périgord Nontronnais (nouvelle),"32,46",503 (2017),15,
Bussière-Badil,24071,24360,https://sws.geonames.org/6447787/,6447787,Nontron,Périgord Vert Nontronnais,2413,CC du Périgord Nontronnais (nouvelle),"19,86",391 (2017),20,
Connezac,24131,24300,https://sws.geonames.org/6453821/,6453821,Nontron,Périgord Vert Nontronnais,2413,CC du Périgord Nontronnais (nouvelle),"5,78",74 (2017),13,
Nontron,24311,24300,https://sws.geonames.org/6453831/,6453831,Nontron,Périgord Vert Nontronnais,2413,CC du Périgord Nontronnais,"24,67",3 050 (2017),124,
Le Bourdeix,24056,24300,https://sws.geonames.org/6456781/,6456781,Nontron,Périgord Vert Nontronnais,2413,CC du Périgord Nontronnais (nouvelle),"11,69",226 (2017),19,
Saint-Barthélemy-de-Bussière,24381,24360,https://sws.geonames.org/6612371/,6612371,Nontron,Périgord Vert Nontronnais,2413,CC du Périgord Nontronnais (nouvelle),"15,01",214 (2017),14,
Abjat-sur-Bandiat,24001,24300,https://sws.geonames.org/6616142/,6616142,Nontron,Périgord Vert Nontronnais,2413,CC du Périgord Nontronnais (nouvelle),"27,62",620 (2017),22,
Champniers-et-Reilhac,24100,24360,https://sws.geonames.org/6616151/,6616151,Nontron,Périgord Vert Nontronnais,2413,CC du Périgord Nontronnais (nouvelle),"20,40",455 (2017),22,
Saint-Estèphe,24398,24360,https://sws.geonames.org/6616182/,6616182,Nontron,Périgord Vert Nontronnais,2413,CC du Périgord Nontronnais (nouvelle),"21,37",613 (2017),29,
Périgueux,24322,24000,https://sws.geonames.org/6429478/,6429478,Périgueux,Périgueux-1,2414,CA Le Grand Périgueux,"9,82",29 966 (2017),3 052,
Périgueux,24322,24000,https://sws.geonames.org/6429478/,6429478,Périgueux,Périgueux-2,2415,CA Le Grand Périgueux,"9,82",29 966 (2017),3 052,
Chassaignes,24114,24600,https://sws.geonames.org/6429334/,6429334,Périgueux,Ribérac,2416,CC du Périgord Ribéracois,"5,79",68 (2017),12,
Cherval,24119,24320,https://sws.geonames.org/6429339/,6429339,Périgueux,Ribérac,2416,CC du Périgord Ribéracois,"18,71",274 (2017),15,
Lusignac,24247,24320,https://sws.geonames.org/6429422/,6429422,Périgueux,Ribérac,2416,CC du Périgord Ribéracois,"7,88",180 (2017),23,
Petit-Bersac,24323,24600,https://sws.geonames.org/6429479/,6429479,Périgueux,Ribérac,2416,CC du Périgord Ribéracois,"10,83",181 (2017),17,
Saint-André-de-Double,24367,24190,https://sws.geonames.org/6429508/,6429508,Périgueux,Ribérac,2416,CC du Périgord Ribéracois,"27,61",173 (2017),"6,3",
Saint-Martial-Viveyrol,24452,24320,https://sws.geonames.org/6429581/,6429581,Périgueux,Ribérac,2416,CC du Périgord Ribéracois,"12,63",195 (2017),15,
Saint-Martin-de-Ribérac,24455,24600,https://sws.geonames.org/6429583/,6429583,Périgueux,Ribérac,2416,CC du Périgord Ribéracois,"16,38",716 (2017),44,
Saint-Paul-Lizonne,24482,24320,https://sws.geonames.org/6429605/,6429605,Périgueux,Ribérac,2416,CC du Périgord Ribéracois,"9,28",273 (2017),29,
Saint-Sulpice-de-Roumagnac,24504,24600,https://sws.geonames.org/6429624/,6429624,Périgueux,Ribérac,2416,CC du Périgord Ribéracois,"10,70",279 (2017),26,
Saint-Vincent-de-Connezac,24509,24190,https://sws.geonames.org/6429627/,6429627,Périgueux,Ribérac,2416,CC du Périgord Ribéracois,"14,81",662 (2017),45,
Siorac-de-Ribérac,24537,24600,https://sws.geonames.org/6429649/,6429649,Périgueux,Ribérac,2416,CC du Périgord Ribéracois,"20,86",251 (2017),12,
Vanxains,24564,24600,https://sws.geonames.org/6429670/,6429670,Périgueux,Ribérac,2416,CC du Périgord Ribéracois,"35,89",700 (2017),20,
Vendoire,24569,24320,https://sws.geonames.org/6429675/,6429675,Périgueux,Ribérac,2416,CC du Périgord Ribéracois,"11,65",134 (2017),12,
Verteillac,24573,24320,https://sws.geonames.org/6429677/,6429677,Périgueux,Ribérac,2416,CC du Périgord Ribéracois,"18,44",672 (2017),36,
Villetoureix,24586,24600,https://sws.geonames.org/6429687/,6429687,Périgueux,Ribérac,2416,CC du Périgord Ribéracois,"16,40",906 (2017),55,
Bertric-Burée,24038,24320,https://sws.geonames.org/6447766/,6447766,Périgueux,Ribérac,2416,CC du Périgord Ribéracois,"16,73",440 (2017),26,
Bourg-des-Maisons,24057,24320,https://sws.geonames.org/6447777/,6447777,Périgueux,Ribérac,2416,CC du Périgord Ribéracois,"8,99",68 (2017),"7,6",
Bourg-du-Bost,24058,24600,https://sws.geonames.org/6447778/,6447778,Périgueux,Ribérac,2416,CC du Périgord Ribéracois,"7,16",225 (2017),31,
Bouteilles-Saint-Sébastien,24062,24320,https://sws.geonames.org/6447782/,6447782,Périgueux,Ribérac,2416,CC du Périgord Ribéracois,"13,96",174 (2017),12,
Celles,24090,24600,https://sws.geonames.org/6447798/,6447798,Périgueux,Ribérac,2416,CC du Périgord Ribéracois,"27,83",587 (2017),21,
Champagne-et-Fontaine,24097,24320,https://sws.geonames.org/6447803/,6447803,Périgueux,Ribérac,2416,CC du Périgord Ribéracois,"25,04",387 (2017),15,
Ribérac,24352,24600,https://sws.geonames.org/6453833/,6453833,Périgueux,Ribérac,2416,CC du Périgord Ribéracois,"22,79",3 861 (2017),169,
La Chapelle-Grésignac,24109,24320,https://sws.geonames.org/6455693/,6455693,Périgueux,Ribérac,2416,CC du Périgord Ribéracois,"6,95",108 (2017),16,
La Chapelle-Montabourlet,24110,24320,https://sws.geonames.org/6455694/,6455694,Périgueux,Ribérac,2416,CC du Périgord Ribéracois,"5,77",62 (2017),11,
La Jemaye-Ponteyraud,24216,24410,https://sws.geonames.org/6455702/,6455702,Périgueux,Ribérac,2416,CC du Périgord Ribéracois,"33,31",154 (2017),"4,6",
La Tour-Blanche-Cercles,24554,24320,https://sws.geonames.org/6455709/,6455709,Périgueux,Ribérac,2416,CC du Périgord Ribéracois,"23,18",595 (2017),26,
Comberanche-et-Épeluche,24128,24600,https://sws.geonames.org/6613438/,6613438,Périgueux,Ribérac,2416,CC du Périgord Ribéracois,"3,93",168 (2017),43,
Allemans,24007,24600,https://sws.geonames.org/6616143/,6616143,Périgueux,Ribérac,2416,CC du Périgord Ribéracois,"18,75",513 (2017),27,
Coutures,24141,24320,https://sws.geonames.org/6616153/,6616153,Périgueux,Ribérac,2416,CC du Périgord Ribéracois,"8,53",185 (2017),22,
Gout-Rossignol,24199,24320,https://sws.geonames.org/6616157/,6616157,Périgueux,Ribérac,2416,CC du Périgord Ribéracois,"24,91",379 (2017),15,
Nanteuil-Auriac-de-Bourzac,24303,24320,https://sws.geonames.org/6616172/,6616172,Périgueux,Ribérac,2416,CC du Périgord Ribéracois,"20,92",224 (2017),11,
Saint-Méard-de-Drône,24460,24600,https://sws.geonames.org/6616189/,6616189,Périgueux,Ribérac,2416,CC du Périgord Ribéracois,"8,95",497 (2017),56,
Saint-Pardoux-de-Drône,24477,24600,https://sws.geonames.org/6616190/,6616190,Périgueux,Ribérac,2416,CC du Périgord Ribéracois,"8,69",198 (2017),23,
Coursac,24139,24430,https://sws.geonames.org/6429353/,6429353,Périgueux,Saint-Astier,2417,CA Le Grand Périgueux,"24,65",2 149 (2017),87,
Manzac-sur-Vern,24251,24110,https://sws.geonames.org/6429425/,6429425,Périgueux,Saint-Astier,2417,CA Le Grand Périgueux,"19,96",593 (2017),30,
Mensignac,24266,24350,https://sws.geonames.org/6429436/,6429436,Périgueux,Saint-Astier,2417,CA Le Grand Périgueux,"26,08",1 521 (2017),58,
Montrem,24295,24110,https://sws.geonames.org/6429459/,6429459,Périgueux,Saint-Astier,2417,CC Isle Vern Salembre en Périgord,"20,15",1 250 (2017),62,
Saint-Léon-sur-l'Isle,24442,24110,https://sws.geonames.org/6429571/,6429571,Périgueux,Saint-Astier,2417,CC Isle Vern Salembre en Périgord,"14,78",2 027 (2017),137,
Annesse-et-Beaulieu,24010,24430,https://sws.geonames.org/6447742/,6447742,Périgueux,Saint-Astier,2417,CA Le Grand Périgueux,"12,12",1 436 (2017),118,
La Chapelle-Gonaguet,24108,24350,https://sws.geonames.org/6455692/,6455692,Périgueux,Saint-Astier,2417,CA Le Grand Périgueux,"19,07",1 069 (2017),56,
Grignols,24205,24110,https://sws.geonames.org/6616158/,6616158,Périgueux,Saint-Astier,2417,CC Isle Vern Salembre en Périgord,"20,41",672 (2017),33,
Jaure,24213,24140,https://sws.geonames.org/6616160/,6616160,Périgueux,Saint-Astier,2417,CC Isle Vern Salembre en Périgord,"7,54",170 (2017),23,
Léguillac-de-l'Auche,24236,24110,https://sws.geonames.org/6616165/,6616165,Périgueux,Saint-Astier,2417,CC Isle Vern Salembre en Périgord,"14,31",994 (2017),69,
Saint-Astier,24372,24110,https://sws.geonames.org/6616180/,6616180,Périgueux,Saint-Astier,2417,CC Isle Vern Salembre en Périgord,"34,25",5 492 (2017),160,
Marcillac-Saint-Quentin,24252,24200,https://sws.geonames.org/6429426/,6429426,Sarlat-la-Canéda,Sarlat-la-Canéda,2418,CC Sarlat-Périgord noir,"16,46",792 (2017),48,
Marquay,24255,24620,https://sws.geonames.org/6429428/,6429428,Sarlat-la-Canéda,Sarlat-la-Canéda,2418,CC Sarlat-Périgord noir,"24,27",577 (2017),24,
Proissans,24341,24200,https://sws.geonames.org/6429492/,6429492,Sarlat-la-Canéda,Sarlat-la-Canéda,2418,CC Sarlat-Périgord noir,"17,56",1 022 (2017),58,
Saint-André-d'Allas,24366,24200,https://sws.geonames.org/6429507/,6429507,Sarlat-la-Canéda,Sarlat-la-Canéda,2418,CC Sarlat-Périgord noir,"28,77",833 (2017),29,
Sainte-Nathalène,24471,24200,https://sws.geonames.org/6429595/,6429595,Sarlat-la-Canéda,Sarlat-la-Canéda,2418,CC Sarlat-Périgord noir,"13,57",595 (2017),44,
Saint-Vincent-de-Cosse,24510,24220,https://sws.geonames.org/6429628/,6429628,Sarlat-la-Canéda,Sarlat-la-Canéda,2418,CC Sarlat-Périgord noir,"7,19",364 (2017),51,
Saint-Vincent-le-Paluel,24512,24200,https://sws.geonames.org/6429630/,6429630,Sarlat-la-Canéda,Sarlat-la-Canéda,2418,CC Sarlat-Périgord noir,"6,86",276 (2017),40,
Sarlat-la-Canéda,24520,24200,https://sws.geonames.org/6429636/,6429636,Sarlat-la-Canéda,Sarlat-la-Canéda,2418,CC Sarlat-Périgord noir,"47,13",8 869 (2017),188,
Tamniès,24544,24620,https://sws.geonames.org/6429654/,6429654,Sarlat-la-Canéda,Sarlat-la-Canéda,2418,CC Sarlat-Périgord noir,"19,09",384 (2017),20,
Vézac,24577,24220,https://sws.geonames.org/6429681/,6429681,Sarlat-la-Canéda,Sarlat-la-Canéda,2418,CC Sarlat-Périgord noir,"12,97",587 (2017),45,
Vitrac,24587,24200,https://sws.geonames.org/6429688/,6429688,Sarlat-la-Canéda,Sarlat-la-Canéda,2418,CC Sarlat-Périgord noir,"14,38",800 (2017),56,
Beynac-et-Cazenac,24040,24220,https://sws.geonames.org/6447767/,6447767,Sarlat-la-Canéda,Sarlat-la-Canéda,2418,CC Sarlat-Périgord noir,"12,74",547 (2017),43,
La Roque-Gageac,24355,24250,https://sws.geonames.org/6455708/,6455708,Sarlat-la-Canéda,Sarlat-la-Canéda,2418,CC Sarlat-Périgord noir,"7,17",440 (2017),61,
Colombier,24126,24560,https://sws.geonames.org/6429344/,6429344,Bergerac,Sud-Bergeracois,2419,CA Bergeracoise,"7,03",257 (2017),37,
Conne-de-Labarde,24132,24560,https://sws.geonames.org/6429347/,6429347,Bergerac,Sud-Bergeracois,2419,CC des Portes Sud Périgord,"10,05",246 (2017),24,
Cunèges,24148,24240,https://sws.geonames.org/6429361/,6429361,Bergerac,Sud-Bergeracois,2419,CA Bergeracoise,"5,98",290 (2017),48,
Eymet,24167,24500,https://sws.geonames.org/6429376/,6429376,Bergerac,Sud-Bergeracois,2419,CC des Portes Sud Périgord,"31,25",2 630 (2017),84,
Faurilles,24176,24560,https://sws.geonames.org/6429381/,6429381,Bergerac,Sud-Bergeracois,2419,CC des Portes Sud Périgord,"4,30",36 (2017),"8,4",
Fonroque,24186,24500,https://sws.geonames.org/6429386/,6429386,Bergerac,Sud-Bergeracois,2419,CC des Portes Sud Périgord,"9,00",326 (2017),36,
Gageac-et-Rouillac,24193,24240,https://sws.geonames.org/6429392/,6429392,Bergerac,Sud-Bergeracois,2419,CA Bergeracoise,"13,99",465 (2017),33,
Issigeac,24212,24560,https://sws.geonames.org/6429403/,6429403,Bergerac,Sud-Bergeracois,2419,CC des Portes Sud Périgord,"9,16",757 (2017),83,
Monbazillac,24274,24240,https://sws.geonames.org/6429443/,6429443,Bergerac,Sud-Bergeracois,2419,CA Bergeracoise,"19,58",829 (2017),42,
Monmadalès,24278,24560,https://sws.geonames.org/6429445/,6429445,Bergerac,Sud-Bergeracois,2419,CC des Portes Sud Périgord,"5,04",82 (2017),16,
Monsaguel,24282,24560,https://sws.geonames.org/6429448/,6429448,Bergerac,Sud-Bergeracois,2419,CC des Portes Sud Périgord,"11,57",152 (2017),13,
Pomport,24331,24240,https://sws.geonames.org/6429484/,6429484,Bergerac,Sud-Bergeracois,2419,CA Bergeracoise,"19,55",739 (2017),38,
Ribagnac,24351,24240,https://sws.geonames.org/6429500/,6429500,Bergerac,Sud-Bergeracois,2419,CA Bergeracoise,"11,81",308 (2017),26,
Rouffignac-de-Sigoulès,24357,24240,https://sws.geonames.org/6429501/,6429501,Bergerac,Sud-Bergeracois,2419,CA Bergeracoise,"6,52",311 (2017),48,
Sadillac,24359,24500,https://sws.geonames.org/6429502/,6429502,Bergerac,Sud-Bergeracois,2419,CC des Portes Sud Périgord,"5,63",119 (2017),21,
Saint-Aubin-de-Lanquais,24374,24560,https://sws.geonames.org/6429514/,6429514,Bergerac,Sud-Bergeracois,2419,CC des Portes Sud Périgord,"9,27",343 (2017),37,
Saint-Capraise-d'Eymet,24383,24500,https://sws.geonames.org/6429523/,6429523,Bergerac,Sud-Bergeracois,2419,CC des Portes Sud Périgord,"11,18",156 (2017),14,
Saint-Cernin-de-Labarde,24385,24560,https://sws.geonames.org/6429525/,6429525,Bergerac,Sud-Bergeracois,2419,CC des Portes Sud Périgord,"11,39",211 (2017),19,
Saint-Léon-d'Issigeac,24441,24560,https://sws.geonames.org/6429570/,6429570,Bergerac,Sud-Bergeracois,2419,CC des Portes Sud Périgord,"5,68",126 (2017),22,
Saint-Perdoux,24483,24560,https://sws.geonames.org/6429606/,6429606,Bergerac,Sud-Bergeracois,2419,CC des Portes Sud Périgord,"7,43",137 (2017),18,
Singleyrac,24536,24500,https://sws.geonames.org/6429648/,6429648,Bergerac,Sud-Bergeracois,2419,CC des Portes Sud Périgord,"7,09",269 (2017),38,
Bardou,24024,24560,https://sws.geonames.org/6447754/,6447754,Bergerac,Sud-Bergeracois,2419,CC des Portes Sud Périgord,"4,76",45 (2017),"9,5",
Boisse,24045,24560,https://sws.geonames.org/6447771/,6447771,Bergerac,Sud-Bergeracois,2419,CC des Portes Sud Périgord,"16,58",246 (2017),15,
Bouniagues,24054,24560,https://sws.geonames.org/6447776/,6447776,Bergerac,Sud-Bergeracois,2419,CA Bergeracoise,"8,62",587 (2017),68,
Saussignac,24523,24240,https://sws.geonames.org/6453835/,6453835,Bergerac,Sud-Bergeracois,2419,CA Bergeracoise,"8,97",428 (2017),48,
Monestier,24276,24240,https://sws.geonames.org/6612363/,6612363,Bergerac,Sud-Bergeracois,2419,CA Bergeracoise,"17,75",390 (2017),22,
Monmarvès,24279,24560,https://sws.geonames.org/6612364/,6612364,Bergerac,Sud-Bergeracois,2419,CC des Portes Sud Périgord,"5,62",64 (2017),11,
Razac-d'Eymet,24348,24500,https://sws.geonames.org/6612367/,6612367,Bergerac,Sud-Bergeracois,2419,CC des Portes Sud Périgord,"12,28",289 (2017),24,
Razac-de-Saussignac,24349,24240,https://sws.geonames.org/6612368/,6612368,Bergerac,Sud-Bergeracois,2419,CA Bergeracoise,"11,58",332 (2017),29,
Saint-Aubin-de-Cadelech,24373,24500,https://sws.geonames.org/6612370/,6612370,Bergerac,Sud-Bergeracois,2419,CC des Portes Sud Périgord,"13,66",336 (2017),25,
Thénac,24549,24240,https://sws.geonames.org/6612374/,6612374,Bergerac,Sud-Bergeracois,2419,CA Bergeracoise,"20,34",488 (2017),24,
Mescoules,24267,24240,https://sws.geonames.org/6613913/,6613913,Bergerac,Sud-Bergeracois,2419,CA Bergeracoise,"4,85",176 (2017),36,
Faux,24177,24560,https://sws.geonames.org/6616155/,6616155,Bergerac,Sud-Bergeracois,2419,CC des Portes Sud Périgord,"16,07",630 (2017),39,
Montaut,24287,24560,https://sws.geonames.org/6616169/,6616169,Bergerac,Sud-Bergeracois,2419,CC des Portes Sud Périgord,"16,16",130 (2017),"8,0",
Sainte-Radegonde,24492,24560,https://sws.geonames.org/6616191/,6616191,Bergerac,Sud-Bergeracois,2419,CC des Portes Sud Périgord,"4,81",62 (2017),13,
Serres-et-Montguyard,24532,24500,https://sws.geonames.org/6616196/,6616196,Bergerac,Sud-Bergeracois,2419,CC des Portes Sud Périgord,"6,85",237 (2017),35,
Plaisance,24168,24560,https://sws.geonames.org/6618252/,6618252,Bergerac,Sud-Bergeracois,2419,CC des Portes Sud Périgord,"24,75",423 (2017),17,
Sigoulès-et-Flaugeac,24534,24240,https://sws.geonames.org/6453836/,6453836,Bergerac,Sud-Bergeracois,2419,CA Bergeracoise,"18,21",1 225 (2017),67,
Saint-Julien-Innocence-Eulalie,24423,24500,https://sws.geonames.org/6429556/,6429556,Bergerac,Sud-Bergeracois,2419,CC des Portes Sud Périgord,"19,73",301 (2017),15,
Les Coteaux Périgourdins,24117,24120,https://sws.geonames.org/6429337/,6429337,Sarlat-la-Canéda,Terrasson-Lavilledieu,2420,CC du Terrassonnais en Périgord Noir Thenon Hautefort,"19,47",590 (2017),30,
Condat-sur-Vézère,24130,24570,https://sws.geonames.org/6429346/,6429346,Sarlat-la-Canéda,Terrasson-Lavilledieu,2420,CC du Terrassonnais en Périgord Noir Thenon Hautefort,"16,64",882 (2017),53,
Jayac,24215,24590,https://sws.geonames.org/6429405/,6429405,Sarlat-la-Canéda,Terrasson-Lavilledieu,2420,CC du Pays de Fénelon (nouvelle),"17,77",175 (2017),"9,8",
Orliaguet,24314,24370,https://sws.geonames.org/6429472/,6429472,Sarlat-la-Canéda,Terrasson-Lavilledieu,2420,CC du Pays de Fénelon (nouvelle),"9,23",106 (2017),11,
Paulin,24317,24590,https://sws.geonames.org/6429474/,6429474,Sarlat-la-Canéda,Terrasson-Lavilledieu,2420,CC du Pays de Fénelon (nouvelle),"11,43",259 (2017),23,
Pazayac,24321,24120,https://sws.geonames.org/6429477/,6429477,Sarlat-la-Canéda,Terrasson-Lavilledieu,2420,CC du Terrassonnais en Périgord Noir Thenon Hautefort,"6,84",880 (2017),129,
Peyrillac-et-Millac,24325,24370,https://sws.geonames.org/6429481/,6429481,Sarlat-la-Canéda,Terrasson-Lavilledieu,2420,CC du Pays de Fénelon (nouvelle),"6,94",223 (2017),32,
Prats-de-Carlux,24336,24370,https://sws.geonames.org/6429488/,6429488,Sarlat-la-Canéda,Terrasson-Lavilledieu,2420,CC du Pays de Fénelon (nouvelle),"13,00",547 (2017),42,
Saint-Crépin-et-Carlucet,24392,24590,https://sws.geonames.org/6429530/,6429530,Sarlat-la-Canéda,Terrasson-Lavilledieu,2420,CC du Pays de Fénelon (nouvelle),"18,51",520 (2017),28,
Saint-Geniès,24412,24590,https://sws.geonames.org/6429547/,6429547,Sarlat-la-Canéda,Terrasson-Lavilledieu,2420,CC du Pays de Fénelon (nouvelle),"33,59",939 (2017),28,
Saint-Julien-de-Lampon,24432,24370,https://sws.geonames.org/6429563/,6429563,Sarlat-la-Canéda,Terrasson-Lavilledieu,2420,CC du Pays de Fénelon (nouvelle),"13,24",626 (2017),47,
Sainte-Mondane,24470,24370,https://sws.geonames.org/6429594/,6429594,Sarlat-la-Canéda,Terrasson-Lavilledieu,2420,CC du Pays de Fénelon (nouvelle),"9,63",260 (2017),27,
Simeyrols,24535,24370,https://sws.geonames.org/6429647/,6429647,Sarlat-la-Canéda,Terrasson-Lavilledieu,2420,CC du Pays de Fénelon (nouvelle),"9,26",258 (2017),28,
Veyrignac,24574,24370,https://sws.geonames.org/6429678/,6429678,Sarlat-la-Canéda,Terrasson-Lavilledieu,2420,CC du Pays de Fénelon (nouvelle),"9,54",335 (2017),35,
Archignac,24012,24590,https://sws.geonames.org/6447744/,6447744,Sarlat-la-Canéda,Terrasson-Lavilledieu,2420,CC du Pays de Fénelon (nouvelle),"22,90",363 (2017),16,
Borrèze,24050,24590,https://sws.geonames.org/6447774/,6447774,Sarlat-la-Canéda,Terrasson-Lavilledieu,2420,CC du Pays de Fénelon (nouvelle),"27,37",342 (2017),12,
Carsac-Aillac,24082,24200,https://sws.geonames.org/6447793/,6447793,Sarlat-la-Canéda,Terrasson-Lavilledieu,2420,CC du Pays de Fénelon (nouvelle),"17,31",1 578 (2017),91,
Carlux,24081,24370,https://sws.geonames.org/6455008/,6455008,Sarlat-la-Canéda,Terrasson-Lavilledieu,2420,CC du Pays de Fénelon (nouvelle),"13,31",629 (2017),47,
La Dornac,24153,24120,https://sws.geonames.org/6455698/,6455698,Sarlat-la-Canéda,Terrasson-Lavilledieu,2420,CC du Terrassonnais en Périgord Noir Thenon Hautefort,"15,86",397 (2017),25,
La Cassagne,24085,24120,https://sws.geonames.org/6456783/,6456783,Sarlat-la-Canéda,Terrasson-Lavilledieu,2420,CC du Terrassonnais en Périgord Noir Thenon Hautefort,"14,85",151 (2017),10,
La Feuillade,24179,24120,https://sws.geonames.org/6613191/,6613191,Sarlat-la-Canéda,Terrasson-Lavilledieu,2420,CC du Terrassonnais en Périgord Noir Thenon Hautefort,"3,97",732 (2017),184,
Terrasson-Lavilledieu,24547,24120,https://sws.geonames.org/6614467/,6614467,Sarlat-la-Canéda,Terrasson-Lavilledieu,2420,CC du Terrassonnais en Périgord Noir Thenon Hautefort,"39,34",6 202 (2017),158,
Cazoulès,24089,24370,https://sws.geonames.org/6614495/,6614495,Sarlat-la-Canéda,Terrasson-Lavilledieu,2420,CC du Pays de Fénelon (nouvelle),"3,52",456 (2017),130,
Calviac-en-Périgord,24074,24370,https://sws.geonames.org/6616148/,6616148,Sarlat-la-Canéda,Terrasson-Lavilledieu,2420,CC du Pays de Fénelon (nouvelle),"14,52",510 (2017),35,
Nadaillac,24301,24590,https://sws.geonames.org/6616171/,6616171,Sarlat-la-Canéda,Terrasson-Lavilledieu,2420,CC du Pays de Fénelon (nouvelle),"26,90",376 (2017),14,
Salignac-Eyvigues,24516,24590,https://sws.geonames.org/6616195/,6616195,Sarlat-la-Canéda,Terrasson-Lavilledieu,2420,CC du Pays de Fénelon (nouvelle),"43,48",1 159 (2017),27,
Coly-Saint-Amand,24364,"24120
24290",https://sws.geonames.org/6429505/,6429505,Sarlat-la-Canéda,Terrasson-Lavilledieu,2420,CC de la Vallée de l'Homme,"34,41",592 (2017),17,
Corgnac-sur-l'Isle,24134,24800,https://sws.geonames.org/6429348/,6429348,Nontron,Thiviers,2421,CC Périgord-Limousin,"20,61",835 (2017),41,
Eyzerac,24171,24800,https://sws.geonames.org/6429379/,6429379,Nontron,Thiviers,2421,CC Périgord-Limousin,"11,03",560 (2017),51,
Firbeix,24180,24450,https://sws.geonames.org/6429383/,6429383,Nontron,Thiviers,2421,CC Périgord-Limousin,"22,66",307 (2017),14,
Jumilhac-le-Grand,24218,24630,https://sws.geonames.org/6429407/,6429407,Nontron,Thiviers,2421,CC Périgord-Limousin,"66,67",1 237 (2017),19,
Lempzours,24238,24800,https://sws.geonames.org/6429416/,6429416,Nontron,Thiviers,2421,CC Périgord-Limousin,"10,87",134 (2017),12,
Mialet,24269,24450,https://sws.geonames.org/6429438/,6429438,Nontron,Thiviers,2421,CC Périgord-Limousin,"37,30",613 (2017),16,
Nantheuil,24304,24800,https://sws.geonames.org/6429464/,6429464,Nontron,Thiviers,2421,CC Périgord-Limousin,"16,82",966 (2017),57,
Nanthiat,24305,24800,https://sws.geonames.org/6429465/,6429465,Nontron,Thiviers,2421,CC Périgord-Limousin,"11,12",239 (2017),21,
Négrondes,24308,24460,https://sws.geonames.org/6429468/,6429468,Nontron,Thiviers,2421,CC Périgord-Limousin,"20,15",815 (2017),40,
Saint-Front-d'Alemps,24408,24460,https://sws.geonames.org/6429543/,6429543,Nontron,Thiviers,2421,CC Périgord-Limousin,"19,02",262 (2017),14,
Saint-Jean-de-Côle,24425,24800,https://sws.geonames.org/6429557/,6429557,Nontron,Thiviers,2421,CC Périgord-Limousin,"12,70",365 (2017),29,
Saint-Martin-de-Fressengeas,24453,24800,https://sws.geonames.org/6429582/,6429582,Nontron,Thiviers,2421,CC Périgord-Limousin,"20,84",359 (2017),17,
Saint-Paul-la-Roche,24481,24800,https://sws.geonames.org/6429604/,6429604,Nontron,Thiviers,2421,CC Périgord-Limousin,"39,22",525 (2017),13,
Saint-Pierre-de-Côle,24485,24800,https://sws.geonames.org/6429608/,6429608,Nontron,Thiviers,2421,CC Périgord-Limousin,"19,85",430 (2017),22,
Saint-Pierre-de-Frugie,24486,24450,https://sws.geonames.org/6429609/,6429609,Nontron,Thiviers,2421,CC Périgord-Limousin,"21,74",398 (2017),18,
Saint-Priest-les-Fougères,24489,24450,https://sws.geonames.org/6429612/,6429612,Nontron,Thiviers,2421,CC Périgord-Limousin,"20,86",381 (2017),18,
Saint-Romain-et-Saint-Clément,24496,24800,https://sws.geonames.org/6429618/,6429618,Nontron,Thiviers,2421,CC Périgord-Limousin,"13,80",328 (2017),24,
Sorges et Ligueux en Périgord,24540,"24460
24420",https://sws.geonames.org/6429651/,6429651,Périgueux,Thiviers,2421,CA Le Grand Périgueux,"54,00",1 565 (2017),29,
Thiviers,24551,24800,https://sws.geonames.org/6429659/,6429659,Nontron,Thiviers,2421,CC Périgord-Limousin,"27,77",2 877 (2017),104,
Vaunac,24567,24800,https://sws.geonames.org/6429673/,6429673,Nontron,Thiviers,2421,CC Périgord-Limousin,"13,78",273 (2017),20,
Chalais,24095,24800,https://sws.geonames.org/6455009/,6455009,Nontron,Thiviers,2421,CC Périgord-Limousin,"18,81",404 (2017),21,
La Coquille,24133,24450,https://sws.geonames.org/6455697/,6455697,Nontron,Thiviers,2421,CC Périgord-Limousin,"22,37",1 324 (2017),59,
Saint-Jory-de-Chalais,24428,24800,https://sws.geonames.org/6616186/,6616186,Nontron,Thiviers,2421,CC Périgord-Limousin,"31,73",584 (2017),18,
Château-l'Évêque,24115,24460,https://sws.geonames.org/6429335/,6429335,Périgueux,Trélissac,2422,CA Le Grand Périgueux,"35,68",2 170 (2017),61,
Cornille,24135,24750,https://sws.geonames.org/6429349/,6429349,Périgueux,Trélissac,2422,CA Le Grand Périgueux,"13,04",676 (2017),52,
Escoire,24162,24420,https://sws.geonames.org/6429371/,6429371,Périgueux,Trélissac,2422,CA Le Grand Périgueux,"3,94",418 (2017),106,
Sarliac-sur-l'Isle,24521,24420,https://sws.geonames.org/6429637/,6429637,Périgueux,Trélissac,2422,CA Le Grand Périgueux,"9,57",1 020 (2017),107,
Trélissac,24557,24750,https://sws.geonames.org/6429663/,6429663,Périgueux,Trélissac,2422,CA Le Grand Périgueux,"22,88",6 658 (2017),291,
Antonne-et-Trigonant,24011,24420,https://sws.geonames.org/6447743/,6447743,Périgueux,Trélissac,2422,CA Le Grand Périgueux,"20,23",1 283 (2017),63,
Champcevinel,24098,24750,https://sws.geonames.org/6447804/,6447804,Périgueux,Trélissac,2422,CA Le Grand Périgueux,"17,72",2 880 (2017),163,
Agonac,24002,24460,https://sws.geonames.org/6452197/,6452197,Périgueux,Trélissac,2422,CA Le Grand Périgueux,"37,22",1 761 (2017),47,
Fanlac,24174,24290,https://sws.geonames.org/6429380/,6429380,Sarlat-la-Canéda,Vallée de l'Homme,2425,CC de la Vallée de l'Homme,"14,37",139 (2017),"9,7",
Fleurac,24183,24580,https://sws.geonames.org/6429385/,6429385,Sarlat-la-Canéda,Vallée de l'Homme,2425,CC de la Vallée de l'Homme,"22,18",244 (2017),11,
Journiac,24217,24260,https://sws.geonames.org/6429406/,6429406,Sarlat-la-Canéda,Vallée de l'Homme,2425,CC de la Vallée de l'Homme,"18,88",437 (2017),23,
Mauzens-et-Miremont,24261,24260,https://sws.geonames.org/6429432/,6429432,Sarlat-la-Canéda,Vallée de l'Homme,2425,CC de la Vallée de l'Homme,"20,57",301 (2017),15,
Peyzac-le-Moustier,24326,24620,https://sws.geonames.org/6429482/,6429482,Sarlat-la-Canéda,Vallée de l'Homme,2425,CC de la Vallée de l'Homme,"10,10",174 (2017),17,
Saint-Avit-de-Vialard,24377,24260,https://sws.geonames.org/6429517/,6429517,Sarlat-la-Canéda,Vallée de l'Homme,2425,CC de la Vallée de l'Homme,"8,45",160 (2017),19,
Saint-Chamassy,24388,24260,https://sws.geonames.org/6429527/,6429527,Sarlat-la-Canéda,Vallée de l'Homme,2425,CC de la Vallée de l'Homme,"15,60",514 (2017),33,
Saint-Félix-de-Reillac-et-Mortemart,24404,24260,https://sws.geonames.org/6429539/,6429539,Sarlat-la-Canéda,Vallée de l'Homme,2425,CC de la Vallée de l'Homme,"20,31",184 (2017),"9,1",
Saint-Léon-sur-Vézère,24443,24290,https://sws.geonames.org/6429572/,6429572,Sarlat-la-Canéda,Vallée de l'Homme,2425,CC de la Vallée de l'Homme,"13,76",425 (2017),31,
Savignac-de-Miremont,24524,24260,https://sws.geonames.org/6429639/,6429639,Sarlat-la-Canéda,Vallée de l'Homme,2425,CC de la Vallée de l'Homme,"7,62",177 (2017),23,
Sergeac,24531,24290,https://sws.geonames.org/6429645/,6429645,Sarlat-la-Canéda,Vallée de l'Homme,2425,CC de la Vallée de l'Homme,"10,71",216 (2017),20,
Thonac,24552,24290,https://sws.geonames.org/6429660/,6429660,Sarlat-la-Canéda,Vallée de l'Homme,2425,CC de la Vallée de l'Homme,"11,62",252 (2017),22,
Tursac,24559,24620,https://sws.geonames.org/6429665/,6429665,Sarlat-la-Canéda,Vallée de l'Homme,2425,CC de la Vallée de l'Homme,"17,71",339 (2017),19,
Valojoulx,24563,24290,https://sws.geonames.org/6429669/,6429669,Sarlat-la-Canéda,Vallée de l'Homme,2425,CC de la Vallée de l'Homme,"11,79",271 (2017),23,
Aubas,24014,24290,https://sws.geonames.org/6447746/,6447746,Sarlat-la-Canéda,Vallée de l'Homme,2425,CC de la Vallée de l'Homme,"17,53",609 (2017),35,
Plazac,24330,24580,https://sws.geonames.org/6453832/,6453832,Sarlat-la-Canéda,Vallée de l'Homme,2425,CC de la Vallée de l'Homme,"33,77",691 (2017),20,
La Chapelle-Aubareil,24106,24290,https://sws.geonames.org/6455690/,6455690,Sarlat-la-Canéda,Vallée de l'Homme,2425,CC de la Vallée de l'Homme,"19,85",541 (2017),27,
Le Bugue,24067,24260,https://sws.geonames.org/6456782/,6456782,Sarlat-la-Canéda,Vallée de l'Homme,2425,CC de la Vallée de l'Homme,"28,96",2 587 (2017),89,
Campagne,24076,24260,https://sws.geonames.org/6613524/,6613524,Sarlat-la-Canéda,Vallée de l'Homme,2425,CC de la Vallée de l'Homme,"14,40",380 (2017),26,
Les Farges,24175,24290,https://sws.geonames.org/6614784/,6614784,Sarlat-la-Canéda,Vallée de l'Homme,2425,CC de la Vallée de l'Homme,"8,14",319 (2017),39,
Rouffignac-Saint-Cernin-de-Reilhac,24356,24580,https://sws.geonames.org/6616177/,6616177,Sarlat-la-Canéda,Vallée de l'Homme,2425,CC de la Vallée de l'Homme,"59,90",1 603 (2017),27,
Montignac-Lascaux,24291,24290,https://sws.geonames.org/6616170/,6616170,Sarlat-la-Canéda,Vallée de l'Homme,2425,CC de la Vallée de l'Homme,"37,15",2 770 (2017),75,
Coly-Saint-Amand,24364,"24120
24290",https://sws.geonames.org/6429505/,6429505,Sarlat-la-Canéda,Vallée de l'Homme,2425,CC de la Vallée de l'Homme,"34,41",592 (2017),17,
Les Eyzies,24172,"24260
24620",https://sws.geonames.org/6616154/,6616154,Sarlat-la-Canéda,Vallée de l'Homme,2425,CC de la Vallée de l'Homme,"53,37",1 100 (2017),21,
Sourzac,24543,24400,https://sws.geonames.org/6424364/,6424364,Périgueux,Vallée de l'Isle,2424,CC Isle Vern Salembre en Périgord,"23,37",1 107 (2017),47,
Chantérac,24104,24190,https://sws.geonames.org/6429332/,6429332,Périgueux,Vallée de l'Isle,2424,CC Isle Vern Salembre en Périgord,"18,94",616 (2017),33,
Douzillac,24157,24190,https://sws.geonames.org/6429366/,6429366,Périgueux,Vallée de l'Isle,2424,CC Isle Vern Salembre en Périgord,"17,17",795 (2017),46,
Neuvic,24309,24190,https://sws.geonames.org/6429469/,6429469,Périgueux,Vallée de l'Isle,2424,CC Isle Vern Salembre en Périgord,"25,82",3 589 (2017),139,
Saint-Aquilin,24371,24110,https://sws.geonames.org/6429512/,6429512,Périgueux,Vallée de l'Isle,2424,CC Isle Vern Salembre en Périgord,"22,35",479 (2017),21,
Saint-Étienne-de-Puycorbier,24399,24400,https://sws.geonames.org/6429535/,6429535,Périgueux,Vallée de l'Isle,2424,CC Isle et Crempse en Périgord,"13,54",106 (2017),"7,8",
Saint-Front-de-Pradoux,24409,24400,https://sws.geonames.org/6429544/,6429544,Périgueux,Vallée de l'Isle,2424,CC Isle et Crempse en Périgord,"9,01",1 160 (2017),129,
Saint-Germain-du-Salembre,24418,24190,https://sws.geonames.org/6429551/,6429551,Périgueux,Vallée de l'Isle,2424,CC Isle Vern Salembre en Périgord,"19,55",941 (2017),48,
Saint-Laurent-des-Hommes,24436,24400,https://sws.geonames.org/6429566/,6429566,Périgueux,Vallée de l'Isle,2424,CC Isle et Crempse en Périgord,"31,94",1 018 (2017),32,
Saint-Louis-en-l'Isle,24444,24400,https://sws.geonames.org/6429573/,6429573,Périgueux,Vallée de l'Isle,2424,CC Isle et Crempse en Périgord,"2,82",303 (2017),107,
Saint-Martin-l'Astier,24457,24400,https://sws.geonames.org/6429585/,6429585,Périgueux,Vallée de l'Isle,2424,CC Isle et Crempse en Périgord,"9,40",138 (2017),15,
Saint-Médard-de-Mussidan,24462,24400,https://sws.geonames.org/6429588/,6429588,Périgueux,Vallée de l'Isle,2424,CC Isle et Crempse en Périgord,"24,45",1 713 (2017),70,
Saint-Michel-de-Double,24465,24400,https://sws.geonames.org/6429591/,6429591,Périgueux,Vallée de l'Isle,2424,CC Isle et Crempse en Périgord,"29,48",240 (2017),"8,1",
Saint-Séverin-d'Estissac,24502,24190,https://sws.geonames.org/6429622/,6429622,Périgueux,Vallée de l'Isle,2424,CC Isle Vern Salembre en Périgord,"5,31",100 (2017),19,
Vallereuil,24562,24190,https://sws.geonames.org/6429668/,6429668,Périgueux,Vallée de l'Isle,2424,CC Isle Vern Salembre en Périgord,"9,27",288 (2017),31,
Beaupouyet,24029,24400,https://sws.geonames.org/6447759/,6447759,Périgueux,Vallée de l'Isle,2424,CC Isle et Crempse en Périgord,"22,63",492 (2017),22,
Beauronne,24032,24400,https://sws.geonames.org/6447762/,6447762,Périgueux,Vallée de l'Isle,2424,CC Isle Vern Salembre en Périgord,"19,24",372 (2017),19,
Bourgnac,24059,24400,https://sws.geonames.org/6447779/,6447779,Périgueux,Vallée de l'Isle,2424,CC Isle et Crempse en Périgord,"9,06",343 (2017),38,
Mussidan,24299,24400,https://sws.geonames.org/6453829/,6453829,Périgueux,Vallée de l'Isle,2424,CC Isle et Crempse en Périgord,"3,85",2 710 (2017),704,
Les Lèches,24234,24400,https://sws.geonames.org/6455704/,6455704,Périgueux,Vallée de l'Isle,2424,CC Isle et Crempse en Périgord,"21,58",368 (2017),17,
Saint-Jean-d'Ataux,24424,24190,https://sws.geonames.org/6616185/,6616185,Périgueux,Vallée de l'Isle,2424,CC Isle Vern Salembre en Périgord,"12,11",128 (2017),11,
Cladech,24122,24170,https://sws.geonames.org/6429341/,6429341,Sarlat-la-Canéda,Vallée Dordogne,2423,CC Vallée de la Dordogne et Forêt Bessède,"5,49",105 (2017),19,
Coux et Bigaroque-Mouzens,24142,24220,https://sws.geonames.org/6429355/,6429355,Sarlat-la-Canéda,Vallée Dordogne,2423,CC Vallée de la Dordogne et Forêt Bessède,"27,50",1 220 (2017),44,
Daglan,24150,24250,https://sws.geonames.org/6429362/,6429362,Sarlat-la-Canéda,Vallée Dordogne,2423,CC de Domme-Villefranche du Périgord,"19,96",538 (2017),27,
Doissat,24151,24170,https://sws.geonames.org/6429363/,6429363,Sarlat-la-Canéda,Vallée Dordogne,2423,CC Vallée de la Dordogne et Forêt Bessède,"15,30",105 (2017),"6,9",
Grives,24206,24170,https://sws.geonames.org/6429398/,6429398,Sarlat-la-Canéda,Vallée Dordogne,2423,CC Vallée de la Dordogne et Forêt Bessède,"8,12",120 (2017),15,
Groléjac,24207,24250,https://sws.geonames.org/6429399/,6429399,Sarlat-la-Canéda,Vallée Dordogne,2423,CC de Domme-Villefranche du Périgord,"12,28",654 (2017),53,
Larzac,24230,24170,https://sws.geonames.org/6429413/,6429413,Sarlat-la-Canéda,Vallée Dordogne,2423,CC Vallée de la Dordogne et Forêt Bessède,"6,78",144 (2017),21,
Marnac,24254,24220,https://sws.geonames.org/6429427/,6429427,Sarlat-la-Canéda,Vallée Dordogne,2423,CC Vallée de la Dordogne et Forêt Bessède,"7,92",188 (2017),24,
Mazeyrolles,24263,24550,https://sws.geonames.org/6429434/,6429434,Sarlat-la-Canéda,Vallée Dordogne,2423,CC de Domme-Villefranche du Périgord,"29,65",305 (2017),10,
Meyrals,24268,24220,https://sws.geonames.org/6429437/,6429437,Sarlat-la-Canéda,Vallée Dordogne,2423,CC Vallée de la Dordogne et Forêt Bessède,"18,16",641 (2017),35,
Monplaisant,24293,24170,https://sws.geonames.org/6429457/,6429457,Sarlat-la-Canéda,Vallée Dordogne,2423,CC Vallée de la Dordogne et Forêt Bessède,"5,56",296 (2017),53,
Orliac,24313,24170,https://sws.geonames.org/6429471/,6429471,Sarlat-la-Canéda,Vallée Dordogne,2423,CC de Domme-Villefranche du Périgord,"10,54",60 (2017),"5,7",
Prats-du-Périgord,24337,24550,https://sws.geonames.org/6429489/,6429489,Sarlat-la-Canéda,Vallée Dordogne,2423,CC de Domme-Villefranche du Périgord,"10,99",147 (2017),13,
Sagelat,24360,24170,https://sws.geonames.org/6429503/,6429503,Sarlat-la-Canéda,Vallée Dordogne,2423,CC Vallée de la Dordogne et Forêt Bessède,"7,57",313 (2017),41,
Saint-Aubin-de-Nabirat,24375,24250,https://sws.geonames.org/6429515/,6429515,Sarlat-la-Canéda,Vallée Dordogne,2423,CC de Domme-Villefranche du Périgord,"6,49",143 (2017),22,
Saint-Cernin-de-l'Herm,24386,24550,https://sws.geonames.org/6429526/,6429526,Sarlat-la-Canéda,Vallée Dordogne,2423,CC de Domme-Villefranche du Périgord,"16,25",234 (2017),14,
Saint-Cybranet,24395,24250,https://sws.geonames.org/6429532/,6429532,Sarlat-la-Canéda,Vallée Dordogne,2423,CC de Domme-Villefranche du Périgord,"10,33",385 (2017),37,
Saint-Cyprien,24396,24220,https://sws.geonames.org/6429533/,6429533,Sarlat-la-Canéda,Vallée Dordogne,2423,CC Vallée de la Dordogne et Forêt Bessède,"21,50",1 561 (2017),73,
Sainte-Foy-de-Belvès,24406,24170,https://sws.geonames.org/6429541/,6429541,Sarlat-la-Canéda,Vallée Dordogne,2423,CC Vallée de la Dordogne et Forêt Bessède,"7,41",139 (2017),19,
Saint-Germain-de-Belvès,24416,24170,https://sws.geonames.org/6429549/,6429549,Sarlat-la-Canéda,Vallée Dordogne,2423,CC Vallée de la Dordogne et Forêt Bessède,"7,19",176 (2017),24,
Saint-Laurent-la-Vallée,24438,24170,https://sws.geonames.org/6429568/,6429568,Sarlat-la-Canéda,Vallée Dordogne,2423,CC de Domme-Villefranche du Périgord,"15,07",247 (2017),16,
Saint-Martial-de-Nabirat,24450,24250,https://sws.geonames.org/6429579/,6429579,Sarlat-la-Canéda,Vallée Dordogne,2423,CC de Domme-Villefranche du Périgord,"15,57",584 (2017),38,
Saint-Pardoux-et-Vielvic,24478,24170,https://sws.geonames.org/6429601/,6429601,Sarlat-la-Canéda,Vallée Dordogne,2423,CC Vallée de la Dordogne et Forêt Bessède,"14,23",211 (2017),15,
Saint-Pompont,24488,24170,https://sws.geonames.org/6429611/,6429611,Sarlat-la-Canéda,Vallée Dordogne,2423,CC de Domme-Villefranche du Périgord,"27,40",372 (2017),14,
Salles-de-Belvès,24517,24170,https://sws.geonames.org/6429633/,6429633,Sarlat-la-Canéda,Vallée Dordogne,2423,CC Vallée de la Dordogne et Forêt Bessède,"8,76",71 (2017),"8,1",
Siorac-en-Périgord,24538,24170,https://sws.geonames.org/6429650/,6429650,Sarlat-la-Canéda,Vallée Dordogne,2423,CC Vallée de la Dordogne et Forêt Bessède,"11,77",1 053 (2017),89,
Veyrines-de-Domme,24575,24250,https://sws.geonames.org/6429679/,6429679,Sarlat-la-Canéda,Vallée Dordogne,2423,CC de Domme-Villefranche du Périgord,"11,44",230 (2017),20,
Villefranche-du-Périgord,24585,24550,https://sws.geonames.org/6429686/,6429686,Sarlat-la-Canéda,Vallée Dordogne,2423,CC de Domme-Villefranche du Périgord,"24,50",693 (2017),28,
Audrix,24015,24260,https://sws.geonames.org/6447747/,6447747,Sarlat-la-Canéda,Vallée Dordogne,2423,CC de la Vallée de l'Homme,"6,22",278 (2017),45,
Berbiguières,24036,24220,https://sws.geonames.org/6447765/,6447765,Sarlat-la-Canéda,Vallée Dordogne,2423,CC Vallée de la Dordogne et Forêt Bessède,"5,35",182 (2017),34,
Bouzic,24063,24250,https://sws.geonames.org/6447783/,6447783,Sarlat-la-Canéda,Vallée Dordogne,2423,CC de Domme-Villefranche du Périgord,"11,76",151 (2017),13,
Castels et Bézenac,24087,24220,https://sws.geonames.org/6447795/,6447795,Sarlat-la-Canéda,Vallée Dordogne,2423,CC Vallée de la Dordogne et Forêt Bessède,"23,76",809 (2017),34,
Cénac-et-Saint-Julien,24091,24250,https://sws.geonames.org/6447799/,6447799,Sarlat-la-Canéda,Vallée Dordogne,2423,CC de Domme-Villefranche du Périgord,"19,87",1 206 (2017),61,
Allas-les-Mines,24006,24220,https://sws.geonames.org/6452199/,6452199,Sarlat-la-Canéda,Vallée Dordogne,2423,CC Vallée de la Dordogne et Forêt Bessède,"7,04",204 (2017),29,
Domme,24152,24250,https://sws.geonames.org/6453822/,6453822,Sarlat-la-Canéda,Vallée Dordogne,2423,CC de Domme-Villefranche du Périgord,"24,91",911 (2017),37,
Nabirat,24300,24250,https://sws.geonames.org/6453830/,6453830,Sarlat-la-Canéda,Vallée Dordogne,2423,CC de Domme-Villefranche du Périgord,"16,25",370 (2017),23,
Pays de Belvès,24035,24170,https://sws.geonames.org/6455003/,6455003,Sarlat-la-Canéda,Vallée Dordogne,2423,CC Vallée de la Dordogne et Forêt Bessède,"30,70",1 419 (2017),46,
Besse,24039,24550,https://sws.geonames.org/6455005/,6455005,Sarlat-la-Canéda,Vallée Dordogne,2423,CC de Domme-Villefranche du Périgord,"16,20",156 (2017),"9,6",
Lavaur,24232,24550,https://sws.geonames.org/6612362/,6612362,Sarlat-la-Canéda,Vallée Dordogne,2423,CC de Domme-Villefranche du Périgord,"9,00",70 (2017),"7,8",
Carves,24084,24170,https://sws.geonames.org/6613701/,6613701,Sarlat-la-Canéda,Vallée Dordogne,2423,CC Vallée de la Dordogne et Forêt Bessède,"10,13",104 (2017),10,
Campagnac-lès-Quercy,24075,24550,https://sws.geonames.org/6614919/,6614919,Sarlat-la-Canéda,Vallée Dordogne,2423,CC de Domme-Villefranche du Périgord,"19,67",304 (2017),15,
Loubejac,24245,24550,https://sws.geonames.org/6614920/,6614920,Sarlat-la-Canéda,Vallée Dordogne,2423,CC de Domme-Villefranche du Périgord,"18,55",264 (2017),14,
Castelnaud-la-Chapelle,24086,24250,https://sws.geonames.org/6616149/,6616149,Sarlat-la-Canéda,Vallée Dordogne,2423,CC de Domme-Villefranche du Périgord,"20,88",457 (2017),22,
Florimont-Gaumier,24184,24250,https://sws.geonames.org/6616156/,6616156,Sarlat-la-Canéda,Vallée Dordogne,2423,CC de Domme-Villefranche du Périgord,"9,05",142 (2017),16,